ID,CellID,low_x0,low_x1,low_x2,low_x3,low_x4,low_ZeroFlowSlope,low_minFlow,low_maxFlow,high_x0,high_x1,high_x2,high_x3,high_x4,high_ZeroFlowSlope,high_minFlow,high_maxFlow,DateTimeStamp,CalibrationGas
0,106112,-1626.299230422717,0.8356893247711693,-0.00015161505449469615,1.1821487129731912e-08,-3.387883773698915e-13,10461,0,20,0,0,0,0,0,-1,-1,-1,24/01/2024 12:00:00,85Ar15CO2
0,106133,-720.1919319462405,0.42421694043332553,-8.177922853289477e-05,6.574739524166702e-09,-1.9159791571903262e-13,10521,0,20,0,0,0,0,0,-1,-1,-1,24/01/2024 12:00:00,85Ar15CO2
0,106135,327.04725379349975,0.00424482936222107,-1.785486697622886e-05,2.201105183790179e-09,-7.822273752111304e-14,10574,0,20,0,0,0,0,0,-1,-1,-1,24/01/2024 12:00:00,85Ar15CO2
0,106142,-517.1895172612245,0.3533341106765486,-7.34447254331124e-05,6.218053326795335e-09,-1.888276556089515e-13,10260,0,20,0,0,0,0,0,-1,-1,-1,24/01/2024 12:00:00,85Ar15CO2
0,106143,532.7084479887206,-0.11816400892639578,6.751479565539637e-06,1.3688039191453404e-10,-1.5890800629302065e-14,10858,0,20,0,0,0,0,0,-1,-1,-1,24/01/2024 12:00:00,85Ar15CO2
0,106146,-589.8173064907971,0.3636015690951762,-7.087696265441605e-05,5.6955932122694455e-09,-1.6506695116556527e-13,10643,0,20,0,0,0,0,0,-1,-1,-1,24/01/2024 12:00:00,85Ar15CO2
0,206001,-1347.3970640911878,0.7506270299766156,-0.00014509389807042467,1.1958801944062366e-08,-3.6083172200651886e-13,9995,0,20,0,0,0,0,0,-1,-1,-1,24/01/2024 12:00:00,85Ar15CO2
0,206002,-1113.5643070917984,0.6045421904957597,-0.00011307051415281764,8.991632863448134e-09,-2.6143279840007515e-13,10389,0,20,0,0,0,0,0,-1,-1,-1,24/01/2024 12:00:00,85Ar15CO2
0,206003,-828.5466825958246,0.46064484767556024,-8.397226908449571e-05,6.381691887656756e-09,-1.7555558838681364e-13,11311,0,20,0,0,0,0,0,-1,-1,-1,24/01/2024 12:00:00,85Ar15CO2
0,206004,782.4291796441712,-0.22810968287887814,2.3425674790286348e-05,-9.149758168437752e-10,7.260596196736106e-15,10307,0,20,0,0,0,0,0,-1,-1,-1,24/01/2024 12:00:00,85Ar15CO2
0,206005,-885.1624021333181,0.5114039220553569,-9.843576117521234e-05,7.945505502985105e-09,-2.328150275588748e-13,10511,0,20,0,0,0,0,0,-1,-1,-1,24/01/2024 12:00:00,85Ar15CO2
0,206006,-1278.9089469230225,0.6886933523043419,-0.00012824906356236326,1.0166754478876327e-08,-2.9473231005517144e-13,10457,0,20,0,0,0,0,0,-1,-1,-1,24/01/2024 12:00:00,85Ar15CO2
0,206007,1660.6879870022951,-0.5616728629840693,7.155007083767719e-05,-4.02575693092984e-09,8.31468706470842e-14,10822,0,20,0,0,0,0,0,-1,-1,-1,24/01/2024 12:00:00,85Ar15CO2
0,206008,-1701.5705052394069,0.91135816382536,-0.00017231851928274,1.4000731625936703e-08,-4.18067885071087e-13,10030,0,20,0,0,0,0,0,-1,-1,-1,24/01/2024 12:00:00,85Ar15CO2
0,206009,-3561.9383838429585,1.655513149596177,-0.00028133961659782474,2.091752378580689e-08,-5.774041119101734e-13,10438,0,20,0,0,0,0,0,-1,-1,-1,24/01/2024 12:00:00,85Ar15CO2
0,206010,-1836.1188348914948,0.9168541369755786,-0.00016291386645765223,1.2481420489614466e-08,-3.519914392738326e-13,10487,0,20,0,0,0,0,0,-1,-1,-1,24/01/2024 12:00:00,85Ar15CO2
0,206011,-5.523541934727892,0.0928527744506413,-2.4064356232225005e-05,2.125392521620577e-09,-6.377060612618235e-14,10845,0,20,0,0,0,0,0,-1,-1,-1,24/01/2024 12:00:00,85Ar15CO2
0,206012,-1272.8122666028514,0.6742614882186839,-0.0001234388956851126,9.61938843648301e-09,-2.741785760353249e-13,10627,0,20,0,0,0,0,0,-1,-1,-1,24/01/2024 12:00:00,85Ar15CO2
0,206013,-368.98319824291184,0.27594159175217986,-5.731251975937176e-05,4.732297298399643e-09,-1.387138897459602e-13,10877,0,20,0,0,0,0,0,-1,-1,-1,24/01/2024 12:00:00,85Ar15CO2
0,206014,-1530.3817032153222,0.7615747366280157,-0.0001338000919441666,1.0103770270889041e-08,-2.8049202512615697e-13,10795,0,20,0,0,0,0,0,-1,-1,-1,24/01/2024 12:00:00,85Ar15CO2
0,206015,27.027968244371447,0.1112761115370288,-3.253547333233957e-05,3.1245217317321687e-09,-1.0079487284801838e-13,10548,0,20,0,0,0,0,0,-1,-1,-1,24/01/2024 12:00:00,85Ar15CO2
0,206016,-332.9715138857718,0.2815464488199654,-6.28292527148485e-05,5.516380562674103e-09,-1.7137343043407757e-13,10378,0,20,0,0,0,0,0,-1,-1,-1,24/01/2024 12:00:00,85Ar15CO2
0,206017,-1663.7540468932057,0.8299103882181537,-0.00014585376436011252,1.09975451595069e-08,-3.043316544123229e-13,10842,0,20,0,0,0,0,0,-1,-1,-1,24/01/2024 12:00:00,85Ar15CO2
0,206018,-979.4179715608165,0.5554303607562814,-0.00010707486493536333,8.728527433243856e-09,-2.5947654421956863e-13,10207,0,20,0,0,0,0,0,-1,-1,-1,24/01/2024 12:00:00,85Ar15CO2
0,206019,-476.3321302843412,0.317675541033572,-6.460665505273039e-05,5.359660552181146e-09,-1.5969985386186506e-13,10448,0,20,0,0,0,0,0,-1,-1,-1,24/01/2024 12:00:00,85Ar15CO2
0,206020,-422.12269910543387,0.3071431855436568,-6.48587479142833e-05,5.505246537612836e-09,-1.6664093169757794e-13,10445,0,20,0,0,0,0,0,-1,-1,-1,24/01/2024 12:00:00,85Ar15CO2
0,206021,-10.434503775697673,0.14228647124878605,-4.1437452517187916e-05,4.120728981056408e-09,-1.388679986014516e-13,10126,0,20,0,0,0,0,0,-1,-1,-1,24/01/2024 12:00:00,85Ar15CO2
0,206022,1280.166322000093,-0.42956751488407086,5.432642401936049e-05,-3.0382597242829284e-09,6.234303443900776e-14,10460,0,20,0,0,0,0,0,-1,-1,-1,24/01/2024 12:00:00,85Ar15CO2
0,206024,-1459.531074589547,0.7591257729477623,-0.00013841671299900528,1.081171796476354e-08,-3.0991068889908486e-13,10468,0,20,0,0,0,0,0,-1,-1,-1,24/01/2024 12:00:00,85Ar15CO2
0,206028,-633.7523135097921,0.4090038698373609,-8.281428514248514e-05,6.885719402220828e-09,-2.0583902065772037e-13,10430,0,20,0,0,0,0,0,-1,-1,-1,24/01/2024 12:00:00,85Ar15CO2
0,106110,1022.2459392342015,-0.30851326403775386,3.4249343219486405e-05,-1.6117207254437612e-09,2.536341347548106e-14,10782,0,20,0,0,0,0,0,-1,-1,-1,24/01/2024 12:00:00,85Ar15CO2
0,106111,712.2461381410434,-0.1756230572266706,1.1500444355447715e-05,1.7816448180741059e-10,-2.8235140469835018e-14,10355,0,20,0,0,0,0,0,-1,-1,-1,24/01/2024 12:00:00,85Ar15CO2
