9:55:41 PM	12/6/2023	441001	22336	1465	31021	2	426	4183	0	 0	 0
9:55:42 PM	12/6/2023	441002	23077	1444	31019	2	427	3688	0	 0	 0
9:56:10 PM	12/6/2023	441003	21980	1466	31019	2	427	4066	0	 0	 0
9:56:10 PM	12/6/2023	441004	21913	1445	31016	2	426	4028	0	 0	 0
9:56:39 PM	12/6/2023	441005	22016	1466	31018	2	426	4195	0	 0	 0
9:56:39 PM	12/6/2023	441006	21921	1445	31014	2	427	4185	0	 0	 0
9:57:08 PM	12/6/2023	441007	22278	1466	31017	2	427	3594	0	 0	 0
9:57:08 PM	12/6/2023	441008	22404	1445	31014	2	427	4111	0	 0	 0
9:57:37 PM	12/6/2023	441009	22545	1466	31017	2	426	3936	0	 0	 0
9:57:37 PM	12/6/2023	441010	21824	1445	31013	2	426	3903	0	 0	 0
9:58:06 PM	12/6/2023	441011	22050	1466	31017	2	426	4039	0	 0	 0
9:58:06 PM	12/6/2023	441012	21812	1445	31014	2	427	4153	0	 0	 0
9:58:34 PM	12/6/2023	441013	22072	1466	31018	2	426	4033	0	 0	 0
9:58:35 PM	12/6/2023	441014	21747	1445	31014	2	426	3951	0	 0	 0
9:59:03 PM	12/6/2023	441015	22153	1466	31017	2	426	4018	0	 0	 0
9:59:03 PM	12/6/2023	441016	22153	1445	31013	2	426	3956	0	 0	 0
9:59:32 PM	12/6/2023	441017	22067	1466	31017	2	426	4040	0	 0	 0
9:59:32 PM	12/6/2023	441018	22132	1445	31014	2	426	4042	0	 0	 0
10:00:01 PM	12/6/2023	441019	22229	1466	31017	2	426	3940	0	 0	 0
10:00:01 PM	12/6/2023	441020	22110	1445	31013	2	427	3996	0	 0	 0
10:00:30 PM	12/6/2023	441021	22163	1466	31017	2	427	4211	0	 0	 0
10:00:30 PM	12/6/2023	441022	22206	1445	31013	2	426	3990	0	 0	 0
10:00:59 PM	12/6/2023	441023	22302	1466	31017	2	427	4171	0	 0	 0
10:00:59 PM	12/6/2023	441024	22282	1445	31014	2	426	3946	0	 0	 0
10:01:27 PM	12/6/2023	441025	22266	1466	31017	2	426	4124	0	 0	 0
10:01:27 PM	12/6/2023	441026	22225	1445	31014	2	426	4082	0	 0	 0
10:01:56 PM	12/6/2023	441027	22096	1466	31017	2	426	4006	0	 0	 0
10:01:56 PM	12/6/2023	441028	22272	1445	31013	2	427	4054	0	 0	 0
10:02:25 PM	12/6/2023	441029	22147	1466	31017	2	426	4023	0	 0	 0
10:02:25 PM	12/6/2023	441030	22254	1446	31014	2	426	3976	0	 0	 0
10:02:54 PM	12/6/2023	441031	22216	1466	31017	2	426	3921	0	 0	 0
10:02:54 PM	12/6/2023	441032	21993	1446	31014	2	426	3992	0	 0	 0
10:03:47 PM	12/6/2023	441001	22316	1466	31018	2	426	3801	0	10	10
10:03:47 PM	12/6/2023	441002	23080	1445	31015	2	427	3222	0	10	10
10:04:16 PM	12/6/2023	441003	21999	1466	31018	2	426	3691	0	10	10
10:04:16 PM	12/6/2023	441004	21939	1445	31014	2	426	3514	0	10	10
10:04:45 PM	12/6/2023	441005	22040	1466	31018	2	426	3685	0	10	10
10:04:45 PM	12/6/2023	441006	21964	1445	31014	2	426	3654	0	10	10
10:05:14 PM	12/6/2023	441007	22284	1466	31017	2	427	3172	0	10	10
10:05:14 PM	12/6/2023	441008	22381	1445	31014	2	427	3750	0	10	10
10:05:43 PM	12/6/2023	441009	22580	1466	31017	2	427	3427	0	10	10
10:05:43 PM	12/6/2023	441010	21815	1445	31014	2	427	3451	0	10	10
10:06:12 PM	12/6/2023	441011	22114	1466	31017	2	427	3540	0	10	10
10:06:12 PM	12/6/2023	441012	21863	1445	31014	2	426	3661	0	10	10
10:06:41 PM	12/6/2023	441013	22094	1466	31017	2	426	3534	0	10	10
10:06:41 PM	12/6/2023	441014	21750	1446	31014	2	426	3559	0	10	10
10:07:10 PM	12/6/2023	441015	22137	1466	31018	2	427	3534	0	10	10
10:07:10 PM	12/6/2023	441016	22128	1445	31014	2	427	3491	0	10	10
10:07:39 PM	12/6/2023	441017	22046	1466	31019	2	426	3594	0	10	10
10:07:39 PM	12/6/2023	441018	22149	1445	31014	2	426	3539	0	10	10
10:08:08 PM	12/6/2023	441019	22177	1466	31018	2	427	3440	0	10	10
10:08:08 PM	12/6/2023	441020	22114	1445	31013	2	426	3514	0	10	10
10:08:37 PM	12/6/2023	441021	22097	1465	31018	2	426	3766	0	10	10
10:08:37 PM	12/6/2023	441022	22134	1444	31014	2	426	3589	0	10	10
10:09:05 PM	12/6/2023	441023	22230	1465	31020	2	427	3757	0	10	10
10:09:06 PM	12/6/2023	441024	22257	1444	31015	2	427	3442	0	10	10
10:09:34 PM	12/6/2023	441025	22179	1465	31019	2	426	3661	0	10	10
10:09:34 PM	12/6/2023	441026	22171	1444	31014	2	426	3608	0	10	10
10:10:03 PM	12/6/2023	441027	22018	1465	31019	2	427	3505	0	10	10
10:10:03 PM	12/6/2023	441028	22270	1443	31014	2	426	3577	0	10	10
10:10:32 PM	12/6/2023	441029	22057	1465	31020	2	426	3600	0	10	10
10:10:32 PM	12/6/2023	441030	22211	1443	31015	2	426	3549	0	10	10
10:11:01 PM	12/6/2023	441031	22127	1465	31019	2	427	3436	0	10	10
10:11:01 PM	12/6/2023	441032	21897	1443	31014	2	426	3511	0	10	10
10:11:54 PM	12/6/2023	441001	22173	1465	31020	2	426	3637	0	17	17
10:11:54 PM	12/6/2023	441002	22898	1443	31016	2	426	3098	0	17	17
10:12:23 PM	12/6/2023	441003	21894	1465	31019	2	426	3506	0	17	17
10:12:23 PM	12/6/2023	441004	21747	1443	31015	2	426	3376	0	17	17
10:12:52 PM	12/6/2023	441005	21946	1465	31020	2	426	3515	0	17	17
10:12:52 PM	12/6/2023	441006	21760	1443	31016	2	426	3506	0	17	17
10:13:21 PM	12/6/2023	441007	22158	1465	31019	2	427	3037	0	17	17
10:13:21 PM	12/6/2023	441008	22312	1444	31014	2	426	3579	0	17	17
10:13:50 PM	12/6/2023	441009	22492	1465	31019	2	427	3276	0	17	17
10:13:50 PM	12/6/2023	441010	21677	1444	31015	2	427	3289	0	17	17
10:14:19 PM	12/6/2023	441011	21989	1465	31018	2	427	3396	0	17	17
10:14:19 PM	12/6/2023	441012	21697	1444	31014	2	426	3509	0	17	17
10:14:48 PM	12/6/2023	441013	22002	1465	31019	2	426	3378	0	17	17
10:14:48 PM	12/6/2023	441014	21666	1444	31014	2	426	3382	0	17	17
10:15:17 PM	12/6/2023	441015	22090	1465	31018	2	427	3362	0	17	17
10:15:17 PM	12/6/2023	441016	22086	1444	31014	2	427	3321	0	17	17
10:15:46 PM	12/6/2023	441017	22016	1465	31018	2	426	3416	0	17	17
10:15:46 PM	12/6/2023	441018	22096	1444	31014	2	426	3390	0	17	17
10:16:15 PM	12/6/2023	441019	22161	1465	31018	2	427	3287	0	17	17
10:16:15 PM	12/6/2023	441020	22086	1444	31015	2	426	3370	0	17	17
10:16:44 PM	12/6/2023	441021	22124	1465	31019	2	426	3579	0	17	17
10:16:44 PM	12/6/2023	441022	22204	1444	31015	2	427	3419	0	17	17
10:17:13 PM	12/6/2023	441023	22302	1465	31018	2	426	3576	0	17	17
10:17:13 PM	12/6/2023	441024	22307	1444	31014	2	427	3292	0	17	17
10:17:42 PM	12/6/2023	441025	22279	1465	31018	2	427	3485	0	17	17
10:17:42 PM	12/6/2023	441026	22276	1444	31014	2	426	3439	0	17	17
10:18:11 PM	12/6/2023	441027	22099	1465	31018	2	427	3350	0	17	17
10:18:11 PM	12/6/2023	441028	22314	1444	31014	2	426	3415	0	17	17
10:18:39 PM	12/6/2023	441029	22135	1465	31019	2	427	3416	0	17	17
10:18:40 PM	12/6/2023	441030	22317	1444	31015	2	426	3362	0	17	17
10:19:09 PM	12/6/2023	441031	22212	1465	31018	2	426	3291	0	17	17
10:19:09 PM	12/6/2023	441032	21979	1444	31014	2	427	3347	0	17	17
10:20:02 PM	12/6/2023	441001	22214	1465	31020	2	426	3423	0	27	27
10:20:02 PM	12/6/2023	441002	22948	1444	31017	2	426	2947	0	27	27
10:20:31 PM	12/6/2023	441003	21920	1465	31019	2	426	3297	0	27	27
10:20:31 PM	12/6/2023	441004	21838	1444	31016	2	427	3191	0	27	27
10:21:00 PM	12/6/2023	441005	21965	1465	31018	2	427	3322	0	27	27
10:21:00 PM	12/6/2023	441006	21878	1444	31014	2	426	3326	0	27	27
10:21:29 PM	12/6/2023	441007	22204	1465	31019	3	427	2877	0	27	27
10:21:29 PM	12/6/2023	441008	22322	1444	31015	2	426	3370	0	27	27
10:21:58 PM	12/6/2023	441009	22532	1466	31018	2	426	3121	0	27	27
10:21:58 PM	12/6/2023	441010	21794	1444	31015	2	426	3103	0	27	27
10:22:27 PM	12/6/2023	441011	22017	1466	31018	2	427	3240	0	27	27
10:22:27 PM	12/6/2023	441012	21818	1444	31014	2	426	3340	0	27	27
10:22:56 PM	12/6/2023	441013	22041	1466	31019	2	427	3195	0	27	27
10:22:56 PM	12/6/2023	441014	21737	1445	31015	2	427	3174	0	27	27
10:23:25 PM	12/6/2023	441015	22106	1466	31018	2	427	3179	0	27	27
10:23:25 PM	12/6/2023	441016	22161	1445	31014	2	427	3147	0	27	27
10:23:54 PM	12/6/2023	441017	22051	1466	31018	2	427	3211	0	27	27
10:23:54 PM	12/6/2023	441018	22154	1445	31015	2	427	3223	0	27	27
10:24:23 PM	12/6/2023	441019	22225	1466	31018	2	427	3108	0	27	27
10:24:23 PM	12/6/2023	441020	22144	1445	31014	2	426	3203	0	27	27
10:24:52 PM	12/6/2023	441021	22173	1466	31018	2	426	3388	0	27	27
10:24:52 PM	12/6/2023	441022	22209	1445	31014	2	427	3248	0	27	27
10:25:21 PM	12/6/2023	441023	22333	1466	31018	2	426	3362	0	27	27
10:25:21 PM	12/6/2023	441024	22335	1445	31014	2	427	3127	0	27	27
10:25:50 PM	12/6/2023	441025	22321	1466	31018	2	427	3309	0	27	27
10:25:50 PM	12/6/2023	441026	22309	1445	31014	2	426	3262	0	27	27
10:26:19 PM	12/6/2023	441027	22151	1466	31018	2	427	3173	0	27	27
10:26:19 PM	12/6/2023	441028	22363	1445	31014	2	426	3246	0	27	27
10:26:48 PM	12/6/2023	441029	22167	1466	31018	2	427	3236	0	27	27
10:26:48 PM	12/6/2023	441030	22313	1445	31015	2	427	3162	0	27	27
10:27:17 PM	12/6/2023	441031	22252	1466	31018	2	427	3128	0	27	27
10:27:17 PM	12/6/2023	441032	22049	1445	31014	2	427	3180	0	27	27
10:28:10 PM	12/6/2023	441001	22246	1466	31020	2	427	2998	0	53	53
10:28:10 PM	12/6/2023	441002	22986	1445	31017	2	427	2637	0	53	53
10:28:39 PM	12/6/2023	441003	21949	1466	31018	2	426	2973	0	53	53
10:28:39 PM	12/6/2023	441004	21844	1445	31015	2	427	2906	0	53	53
10:29:08 PM	12/6/2023	441005	21983	1466	31019	2	427	2966	0	53	53
10:29:08 PM	12/6/2023	441006	21885	1445	31015	2	427	2995	0	53	53
10:29:38 PM	12/6/2023	441007	22242	1466	31017	3	426	2570	0	53	53
10:29:38 PM	12/6/2023	441008	22346	1445	31014	2	426	2963	0	53	53
10:30:07 PM	12/6/2023	441009	22576	1466	31018	2	426	2793	0	53	53
10:30:07 PM	12/6/2023	441010	21861	1445	31014	2	426	2796	0	53	53
10:30:36 PM	12/6/2023	441011	22035	1466	31018	2	426	2961	0	53	53
10:30:36 PM	12/6/2023	441012	21844	1445	31014	2	427	3032	0	53	53
10:31:05 PM	12/6/2023	441013	22090	1466	31018	2	427	2901	0	53	53
10:31:05 PM	12/6/2023	441014	21798	1445	31014	2	427	2880	0	53	53
10:31:34 PM	12/6/2023	441015	22153	1466	31018	2	426	2886	0	53	53
10:31:34 PM	12/6/2023	441016	22174	1445	31014	2	426	2867	0	53	53
10:32:03 PM	12/6/2023	441017	22095	1466	31018	2	427	2917	0	53	53
10:32:03 PM	12/6/2023	441018	22170	1445	31014	2	427	2914	0	53	53
10:32:32 PM	12/6/2023	441019	22240	1466	31017	2	426	2752	0	53	53
10:32:32 PM	12/6/2023	441020	22156	1445	31014	2	426	2892	0	53	53
10:33:01 PM	12/6/2023	441021	22227	1466	31017	2	427	3078	0	53	53
10:33:01 PM	12/6/2023	441022	22263	1445	31014	2	426	2901	0	53	53
10:33:30 PM	12/6/2023	441023	22350	1466	31018	2	426	3013	0	53	53
10:33:30 PM	12/6/2023	441024	22341	1445	31014	2	426	2839	0	53	53
10:33:59 PM	12/6/2023	441025	22313	1466	31017	2	427	2980	0	53	53
10:33:59 PM	12/6/2023	441026	22282	1445	31013	2	427	2960	0	53	53
10:34:28 PM	12/6/2023	441027	22183	1466	31017	2	426	2870	0	53	53
10:34:28 PM	12/6/2023	441028	22394	1445	31013	2	427	2963	0	53	53
10:34:57 PM	12/6/2023	441029	22175	1466	31017	2	427	2965	0	53	53
10:34:57 PM	12/6/2023	441030	22303	1445	31014	2	427	2887	0	53	53
10:35:26 PM	12/6/2023	441031	22270	1466	31018	2	426	2820	0	53	53
10:35:26 PM	12/6/2023	441032	22060	1445	31014	2	427	2850	0	53	53
10:36:20 PM	12/6/2023	441001	22287	1466	31019	2	427	2706	0	80	80
10:36:20 PM	12/6/2023	441002	23050	1445	31016	3	427	2387	0	80	80
10:36:49 PM	12/6/2023	441003	21990	1466	31018	2	426	2612	0	80	80
10:36:49 PM	12/6/2023	441004	21916	1445	31015	2	426	2615	0	80	80
10:37:18 PM	12/6/2023	441005	22038	1466	31018	2	426	2664	0	80	80
10:37:18 PM	12/6/2023	441006	21977	1445	31015	2	426	2713	0	80	80
10:37:47 PM	12/6/2023	441007	22272	1466	31018	3	427	2320	0	80	80
10:37:47 PM	12/6/2023	441008	22410	1445	31014	2	427	2740	0	80	80
10:38:16 PM	12/6/2023	441009	22602	1466	31018	2	427	2506	0	80	80
10:38:17 PM	12/6/2023	441010	21843	1445	31014	2	427	2478	0	80	80
10:38:46 PM	12/6/2023	441011	22094	1466	31018	2	427	2635	0	80	80
10:38:46 PM	12/6/2023	441012	21863	1445	31014	2	427	2769	0	80	80
10:39:15 PM	12/6/2023	441013	22133	1466	31018	2	426	2614	0	80	80
10:39:15 PM	12/6/2023	441014	21795	1445	31014	2	426	2580	0	80	80
10:39:44 PM	12/6/2023	441015	22205	1466	31017	2	427	2554	0	80	80
10:39:44 PM	12/6/2023	441016	22194	1445	31013	2	427	2553	0	80	80
10:40:13 PM	12/6/2023	441017	22218	1466	31018	2	426	2629	0	80	80
10:40:13 PM	12/6/2023	441018	22228	1445	31014	2	426	2636	0	80	80
10:40:42 PM	12/6/2023	441019	22339	1466	31018	2	427	2486	0	80	80
10:40:42 PM	12/6/2023	441020	22232	1445	31014	2	427	2648	0	80	80
10:41:11 PM	12/6/2023	441021	22264	1466	31018	2	426	2730	0	80	80
10:41:12 PM	12/6/2023	441022	22307	1445	31014	2	426	2672	0	80	80
10:41:41 PM	12/6/2023	441023	22409	1466	31018	2	427	2653	0	80	80
10:41:41 PM	12/6/2023	441024	22396	1445	31014	2	426	2562	0	80	80
10:42:10 PM	12/6/2023	441025	22394	1466	31017	2	426	2710	0	80	80
10:42:10 PM	12/6/2023	441026	22355	1445	31014	2	426	2647	0	80	80
10:42:39 PM	12/6/2023	441027	22233	1466	31018	2	426	2589	0	80	80
10:42:39 PM	12/6/2023	441028	22453	1445	31014	2	427	2670	0	80	80
10:43:08 PM	12/6/2023	441029	22275	1466	31017	2	426	2661	0	80	80
10:43:08 PM	12/6/2023	441030	22391	1445	31014	2	426	2591	0	80	80
10:43:37 PM	12/6/2023	441031	22358	1466	31018	2	427	2556	0	80	80
10:43:37 PM	12/6/2023	441032	22092	1445	31014	2	426	2573	0	80	80
10:44:31 PM	12/6/2023	441001	22400	1466	31019	2	426	2471	0	107	107
10:44:31 PM	12/6/2023	441002	23111	1445	31016	3	427	2152	0	107	107
10:45:00 PM	12/6/2023	441003	22057	1466	31018	2	427	2398	0	107	107
10:45:00 PM	12/6/2023	441004	21953	1445	31014	2	426	2375	0	107	107
10:45:29 PM	12/6/2023	441005	22085	1466	31018	2	427	2417	0	107	107
10:45:29 PM	12/6/2023	441006	21984	1445	31014	2	426	2484	0	107	107
10:45:58 PM	12/6/2023	441007	22316	1466	31018	3	427	2114	0	107	107
10:45:58 PM	12/6/2023	441008	22402	1445	31014	2	427	2468	0	107	107
10:46:28 PM	12/6/2023	441009	22629	1466	31017	3	427	2272	0	107	107
10:46:28 PM	12/6/2023	441010	21891	1445	31013	3	427	2248	0	107	107
10:46:57 PM	12/6/2023	441011	22155	1466	31018	3	427	2392	0	107	107
10:46:57 PM	12/6/2023	441012	21925	1445	31014	2	427	2525	0	107	107
10:47:26 PM	12/6/2023	441013	22222	1466	31017	2	427	2352	0	107	107
10:47:26 PM	12/6/2023	441014	21869	1445	31014	2	427	2334	0	107	107
10:47:55 PM	12/6/2023	441015	22248	1466	31016	3	427	2316	0	107	107
10:47:55 PM	12/6/2023	441016	22226	1445	31013	3	427	2317	0	107	107
10:48:25 PM	12/6/2023	441017	22381	1466	31017	2	426	2395	0	107	107
10:48:25 PM	12/6/2023	441018	22260	1445	31014	2	427	2398	0	107	107
10:48:54 PM	12/6/2023	441019	22367	1466	31017	3	427	2250	0	107	107
10:48:54 PM	12/6/2023	441020	22265	1445	31014	2	427	2422	0	107	107
10:49:23 PM	12/6/2023	441021	22338	1466	31017	2	426	2466	0	107	107
10:49:23 PM	12/6/2023	441022	22355	1445	31014	2	426	2432	0	107	107
10:49:52 PM	12/6/2023	441023	22468	1466	31017	2	426	2437	0	107	107
10:49:52 PM	12/6/2023	441024	22472	1445	31014	2	427	2313	0	107	107
10:50:21 PM	12/6/2023	441025	22460	1466	31017	2	427	2471	0	107	107
10:50:21 PM	12/6/2023	441026	22417	1445	31013	2	426	2403	0	107	107
10:50:51 PM	12/6/2023	441027	22298	1466	31017	2	427	2347	0	107	107
10:50:51 PM	12/6/2023	441028	22499	1445	31013	2	426	2450	0	107	107
10:51:20 PM	12/6/2023	441029	22325	1466	31017	2	427	2434	0	107	107
10:51:20 PM	12/6/2023	441030	22454	1446	31014	2	427	2332	0	107	107
10:51:49 PM	12/6/2023	441031	22406	1466	31017	3	427	2337	0	107	107
10:51:49 PM	12/6/2023	441032	22136	1445	31013	2	427	2323	0	107	107
10:52:42 PM	12/6/2023	441001	22505	1466	31019	2	427	2268	0	133	133
10:52:42 PM	12/6/2023	441002	23154	1445	31016	3	427	1979	0	133	133
10:53:12 PM	12/6/2023	441003	22115	1466	31018	2	426	2226	0	133	133
10:53:12 PM	12/6/2023	441004	22007	1445	31015	2	427	2171	0	133	133
10:53:41 PM	12/6/2023	441005	22125	1466	31017	2	427	2217	0	133	133
10:53:41 PM	12/6/2023	441006	21992	1445	31014	2	426	2293	0	133	133
10:54:10 PM	12/6/2023	441007	22390	1466	31018	3	426	1935	0	133	133
10:54:11 PM	12/6/2023	441008	22480	1445	31014	2	426	2284	0	133	133
10:54:40 PM	12/6/2023	441009	22675	1466	31017	3	426	2091	0	133	133
10:54:40 PM	12/6/2023	441010	21917	1445	31014	3	426	2069	0	133	133
10:55:09 PM	12/6/2023	441011	22199	1466	31018	3	426	2198	0	133	133
10:55:09 PM	12/6/2023	441012	21957	1446	31014	2	426	2317	0	133	133
10:55:39 PM	12/6/2023	441013	22231	1466	31017	3	427	2168	0	133	133
10:55:39 PM	12/6/2023	441014	21918	1446	31013	2	427	2142	0	133	133
10:56:08 PM	12/6/2023	441015	22311	1466	31017	3	426	2114	0	133	133
10:56:08 PM	12/6/2023	441016	22259	1446	31014	3	426	2116	0	133	133
10:56:37 PM	12/6/2023	441017	22611	1466	31017	2	427	2191	0	133	133
10:56:37 PM	12/6/2023	441018	22350	1446	31014	2	427	2189	0	133	133
10:57:07 PM	12/6/2023	441019	22439	1466	31017	3	426	2056	0	133	133
10:57:07 PM	12/6/2023	441020	22319	1446	31013	2	426	2225	0	133	133
10:57:36 PM	12/6/2023	441021	22345	1466	31017	2	427	2265	0	133	133
10:57:36 PM	12/6/2023	441022	22355	1446	31014	2	427	2260	0	133	133
10:58:05 PM	12/6/2023	441023	22480	1466	31017	2	426	2250	0	133	133
10:58:05 PM	12/6/2023	441024	22470	1446	31013	3	427	2121	0	133	133
10:58:35 PM	12/6/2023	441025	22506	1466	31017	3	427	2262	0	133	133
10:58:35 PM	12/6/2023	441026	22496	1446	31014	2	427	2188	0	133	133
10:59:04 PM	12/6/2023	441027	22317	1466	31017	3	427	2140	0	133	133
10:59:04 PM	12/6/2023	441028	22551	1446	31014	2	427	2237	0	133	133
10:59:33 PM	12/6/2023	441029	22371	1466	31017	3	427	2246	0	133	133
10:59:33 PM	12/6/2023	441030	22498	1446	31014	3	427	2119	0	133	133
11:00:03 PM	12/6/2023	441031	22462	1466	31017	3	426	2159	0	133	133
11:00:03 PM	12/6/2023	441032	22193	1446	31014	3	427	2117	0	133	133
11:00:56 PM	12/6/2023	441001	22644	1467	31019	3	427	2075	0	160	160
11:00:56 PM	12/6/2023	441002	23178	1446	31016	3	427	1805	0	160	160
11:01:25 PM	12/6/2023	441003	22151	1467	31018	2	427	2039	0	160	160
11:01:25 PM	12/6/2023	441004	22022	1446	31014	3	427	1992	0	160	160
11:01:55 PM	12/6/2023	441005	22183	1467	31017	3	427	2011	0	160	160
11:01:55 PM	12/6/2023	441006	22036	1446	31014	2	427	2106	0	160	160
11:02:25 PM	12/6/2023	441007	22426	1466	31017	3	426	1768	0	160	160
11:02:25 PM	12/6/2023	441008	22528	1446	31014	2	426	2102	0	160	160
11:02:54 PM	12/6/2023	441009	22741	1467	31017	3	427	1898	0	160	160
11:02:54 PM	12/6/2023	441010	21950	1446	31014	3	427	1884	0	160	160
11:03:24 PM	12/6/2023	441011	22245	1467	31017	3	427	1991	0	160	160
11:03:24 PM	12/6/2023	441012	21959	1446	31014	2	427	2142	0	160	160
11:03:53 PM	12/6/2023	441013	22309	1466	31017	3	426	1980	0	160	160
11:03:53 PM	12/6/2023	441014	21927	1446	31013	3	427	1974	0	160	160
11:04:23 PM	12/6/2023	441015	22337	1467	31016	3	427	1947	0	160	160
11:04:23 PM	12/6/2023	441016	22307	1446	31013	3	427	1915	0	160	160
11:04:52 PM	12/6/2023	441017	22811	1467	31017	3	427	2007	0	160	160
11:04:52 PM	12/6/2023	441018	22461	1446	31014	3	427	1997	0	160	160
11:05:21 PM	12/6/2023	441019	22474	1467	31017	3	427	1880	0	160	160
11:05:21 PM	12/6/2023	441020	22365	1446	31014	2	426	2043	0	160	160
11:05:51 PM	12/6/2023	441021	22418	1467	31017	3	427	2077	0	160	160
11:05:51 PM	12/6/2023	441022	22437	1446	31014	3	427	2073	0	160	160
11:06:20 PM	12/6/2023	441023	22545	1466	31017	2	427	2055	0	160	160
11:06:20 PM	12/6/2023	441024	22538	1446	31014	3	426	1945	0	160	160
11:06:49 PM	12/6/2023	441025	22532	1466	31017	3	426	2078	0	160	160
11:06:49 PM	12/6/2023	441026	22522	1446	31014	3	427	2017	0	160	160
11:07:19 PM	12/6/2023	441027	22355	1467	31017	3	426	1957	0	160	160
11:07:19 PM	12/6/2023	441028	22570	1446	31014	2	427	2041	0	160	160
11:07:48 PM	12/6/2023	441029	22408	1467	31017	3	426	2072	0	160	160
11:07:48 PM	12/6/2023	441030	22542	1446	31013	3	426	1931	0	160	160
11:08:18 PM	12/6/2023	441031	22508	1466	31018	3	427	1964	0	160	160
11:08:18 PM	12/6/2023	441032	22208	1446	31014	3	426	1947	0	160	160
