8:04:30 PM	12/8/2023	441033	21590	1435	30993	2	380	3835	0	 0	 0
8:04:30 PM	12/8/2023	441034	24514	1432	31000	2	380	3881	0	 0	 0
8:04:57 PM	12/8/2023	441035	21104	1453	31003	2	380	4332	0	 0	 0
8:04:57 PM	12/8/2023	441036	21248	1451	31006	2	381	4238	0	 0	 0
8:05:23 PM	12/8/2023	441037	21287	1453	31003	2	380	4577	0	 0	 0
8:05:23 PM	12/8/2023	441038	21259	1451	31005	2	381	3412	0	 0	 0
8:05:50 PM	12/8/2023	441039	22029	1453	31003	2	381	4303	0	 0	 0
8:05:50 PM	12/8/2023	441040	23814	1450	31005	2	380	4074	0	 0	 0
8:06:16 PM	12/8/2023	441041	21743	1453	31003	2	380	4184	0	 0	 0
8:06:16 PM	12/8/2023	441042	21386	1450	31005	2	381	4239	0	 0	 0
8:06:42 PM	12/8/2023	441043	21318	1453	31003	2	380	4329	0	 0	 0
8:06:43 PM	12/8/2023	441044	21319	1450	31005	2	380	3840	0	 0	 0
8:07:09 PM	12/8/2023	441045	21923	1453	31003	2	381	4154	0	 0	 0
8:07:09 PM	12/8/2023	441046	21314	1450	31005	2	381	4299	0	 0	 0
8:07:35 PM	12/8/2023	441047	22045	1453	31003	2	381	4301	0	 0	 0
8:07:35 PM	12/8/2023	441048	22122	1451	31005	2	381	4178	0	 0	 0
8:08:01 PM	12/8/2023	441049	21451	1453	31003	1	380	6222	0	 0	 0
8:08:01 PM	12/8/2023	441050	21653	1451	31005	2	381	4040	0	 0	 0
8:08:27 PM	12/8/2023	441051	21679	1453	31003	2	381	4058	0	 0	 0
8:08:27 PM	12/8/2023	441052	21931	1451	31005	2	381	4159	0	 0	 0
8:08:54 PM	12/8/2023	441053	21555	1453	31004	2	381	4103	0	 0	 0
8:08:54 PM	12/8/2023	441054	21756	1451	31005	2	381	4109	0	 0	 0
8:09:20 PM	12/8/2023	441055	21671	1453	31004	2	381	4187	0	 0	 0
8:09:20 PM	12/8/2023	441056	21983	1451	31005	2	381	4124	0	 0	 0
8:09:46 PM	12/8/2023	441057	21508	1453	31003	2	380	3821	0	 0	 0
8:09:47 PM	12/8/2023	441058	21902	1451	31005	2	381	4120	0	 0	 0
8:10:13 PM	12/8/2023	441059	21603	1453	31003	2	381	4184	0	 0	 0
8:10:13 PM	12/8/2023	441060	21871	1451	31004	2	381	4068	0	 0	 0
8:10:39 PM	12/8/2023	441061	21588	1453	31003	2	380	4112	0	 0	 0
8:10:39 PM	12/8/2023	441062	21924	1451	31005	2	381	4135	0	 0	 0
8:11:05 PM	12/8/2023	441063	21424	1453	31003	2	381	4217	0	 0	 0
8:11:05 PM	12/8/2023	441064	21671	1451	31004	2	381	4214	0	 0	 0
8:11:59 PM	12/8/2023	441033	21642	1454	31004	2	380	3696	0	10	10
8:11:59 PM	12/8/2023	441034	24891	1452	31005	2	380	3755	0	10	10
8:12:25 PM	12/8/2023	441035	21281	1454	31004	2	380	3825	0	10	10
8:12:25 PM	12/8/2023	441036	21435	1452	31005	2	380	3739	0	10	10
8:12:52 PM	12/8/2023	441037	21337	1454	31003	2	381	4088	0	10	10
8:12:52 PM	12/8/2023	441038	21319	1451	31005	2	380	3021	0	10	10
8:13:18 PM	12/8/2023	441039	22103	1454	31004	2	381	3818	0	10	10
8:13:18 PM	12/8/2023	441040	23883	1451	31005	2	381	3607	0	10	10
8:13:45 PM	12/8/2023	441041	21825	1454	31003	2	381	3710	0	10	10
8:13:45 PM	12/8/2023	441042	21447	1451	31004	2	380	3746	0	10	10
8:14:11 PM	12/8/2023	441043	21384	1454	31004	2	381	3837	0	10	10
8:14:11 PM	12/8/2023	441044	21419	1451	31005	2	380	3640	0	10	10
8:14:37 PM	12/8/2023	441045	21946	1454	31003	2	381	3795	0	10	10
8:14:38 PM	12/8/2023	441046	21354	1451	31005	2	381	3795	0	10	10
8:15:04 PM	12/8/2023	441047	22131	1454	31004	2	381	3875	0	10	10
8:15:04 PM	12/8/2023	441048	22162	1451	31005	2	381	3743	0	10	10
8:15:30 PM	12/8/2023	441049	21532	1454	31004	1	380	5746	0	10	10
8:15:30 PM	12/8/2023	441050	21727	1451	31005	2	380	3648	0	10	10
8:15:56 PM	12/8/2023	441051	21751	1454	31004	2	380	3610	0	10	10
8:15:57 PM	12/8/2023	441052	22002	1451	31005	2	380	3721	0	10	10
8:16:23 PM	12/8/2023	441053	21686	1454	31004	2	380	3712	0	10	10
8:16:23 PM	12/8/2023	441054	21889	1451	31005	2	381	3671	0	10	10
8:16:49 PM	12/8/2023	441055	21781	1454	31003	2	381	3773	0	10	10
8:16:49 PM	12/8/2023	441056	22068	1451	31005	2	380	3697	0	10	10
8:17:16 PM	12/8/2023	441057	21637	1454	31004	2	381	3539	0	10	10
8:17:16 PM	12/8/2023	441058	22028	1451	31005	2	380	3707	0	10	10
8:17:42 PM	12/8/2023	441059	21705	1454	31004	2	380	3760	0	10	10
8:17:42 PM	12/8/2023	441060	21964	1451	31005	2	380	3641	0	10	10
8:18:08 PM	12/8/2023	441061	21651	1454	31004	2	380	3673	0	10	10
8:18:08 PM	12/8/2023	441062	21986	1451	31005	2	380	3737	0	10	10
8:18:35 PM	12/8/2023	441063	21503	1454	31004	2	380	3772	0	10	10
8:18:35 PM	12/8/2023	441064	21748	1451	31005	2	381	3795	0	10	10
8:19:28 PM	12/8/2023	441033	21700	1454	31004	2	380	3556	0	17	17
8:19:28 PM	12/8/2023	441034	24902	1451	31005	2	380	3606	0	17	17
8:19:54 PM	12/8/2023	441035	21376	1454	31004	2	380	3673	0	17	17
8:19:54 PM	12/8/2023	441036	21505	1451	31005	2	380	3582	0	17	17
8:20:21 PM	12/8/2023	441037	21401	1454	31004	2	381	3928	0	17	17
8:20:21 PM	12/8/2023	441038	21348	1451	31005	2	380	2887	0	17	17
8:20:48 PM	12/8/2023	441039	22139	1454	31004	2	380	3676	0	17	17
8:20:48 PM	12/8/2023	441040	23970	1451	31005	2	381	3450	0	17	17
8:21:14 PM	12/8/2023	441041	21877	1454	31005	2	380	3567	0	17	17
8:21:14 PM	12/8/2023	441042	21513	1451	31006	2	380	3595	0	17	17
8:21:41 PM	12/8/2023	441043	21442	1454	31004	2	380	3709	0	17	17
8:21:41 PM	12/8/2023	441044	21451	1451	31005	2	380	3544	0	17	17
8:22:07 PM	12/8/2023	441045	21984	1454	31004	2	381	3638	0	17	17
8:22:07 PM	12/8/2023	441046	21394	1451	31006	2	381	3655	0	17	17
8:22:33 PM	12/8/2023	441047	22159	1454	31004	2	381	3710	0	17	17
8:22:33 PM	12/8/2023	441048	22218	1451	31005	2	380	3586	0	17	17
8:23:00 PM	12/8/2023	441049	21641	1454	31005	1	380	5510	0	17	17
8:23:00 PM	12/8/2023	441050	21841	1451	31006	2	380	3491	0	17	17
8:23:26 PM	12/8/2023	441051	21859	1454	31005	2	380	3469	0	17	17
8:23:26 PM	12/8/2023	441052	22098	1451	31006	2	380	3566	0	17	17
8:23:52 PM	12/8/2023	441053	21810	1454	31004	2	380	3543	0	17	17
8:23:52 PM	12/8/2023	441054	22005	1451	31005	2	380	3525	0	17	17
8:24:19 PM	12/8/2023	441055	21892	1454	31004	2	380	3624	0	17	17
8:24:19 PM	12/8/2023	441056	22198	1451	31005	2	380	3554	0	17	17
8:24:45 PM	12/8/2023	441057	21743	1454	31004	2	381	3389	0	17	17
8:24:45 PM	12/8/2023	441058	22134	1451	31006	2	380	3562	0	17	17
8:25:12 PM	12/8/2023	441059	21804	1454	31004	2	380	3624	0	17	17
8:25:12 PM	12/8/2023	441060	22025	1451	31005	2	380	3506	0	17	17
8:25:38 PM	12/8/2023	441061	21762	1454	31005	2	380	3523	0	17	17
8:25:38 PM	12/8/2023	441062	22132	1451	31005	2	380	3569	0	17	17
8:26:04 PM	12/8/2023	441063	21612	1454	31004	2	380	3619	0	17	17
8:26:05 PM	12/8/2023	441064	21853	1451	31005	2	380	3641	0	17	17
8:26:58 PM	12/8/2023	441033	21803	1454	31005	2	381	3378	0	27	27
8:26:58 PM	12/8/2023	441034	24945	1451	31006	2	380	3439	0	27	27
8:27:24 PM	12/8/2023	441035	21427	1454	31004	2	380	3503	0	27	27
8:27:24 PM	12/8/2023	441036	21562	1451	31006	2	380	3412	0	27	27
8:27:51 PM	12/8/2023	441037	21485	1454	31005	2	381	3743	0	27	27
8:27:51 PM	12/8/2023	441038	21465	1451	31006	2	380	2712	0	27	27
8:28:18 PM	12/8/2023	441039	22244	1454	31004	2	380	3503	0	27	27
8:28:18 PM	12/8/2023	441040	24041	1451	31005	2	380	3292	0	27	27
8:28:44 PM	12/8/2023	441041	21963	1454	31004	2	381	3387	0	27	27
8:28:44 PM	12/8/2023	441042	21613	1451	31005	2	380	3425	0	27	27
8:29:11 PM	12/8/2023	441043	21559	1454	31005	2	381	3540	0	27	27
8:29:11 PM	12/8/2023	441044	21572	1451	31006	2	381	3398	0	27	27
8:29:37 PM	12/8/2023	441045	22097	1454	31005	2	381	3451	0	27	27
8:29:37 PM	12/8/2023	441046	21508	1451	31006	2	380	3501	0	27	27
8:30:03 PM	12/8/2023	441047	22264	1454	31004	2	381	3521	0	27	27
8:30:03 PM	12/8/2023	441048	22338	1451	31006	2	380	3393	0	27	27
8:30:30 PM	12/8/2023	441049	21753	1454	31005	1	381	5237	0	27	27
8:30:30 PM	12/8/2023	441050	21932	1451	31006	2	380	3318	0	27	27
8:30:56 PM	12/8/2023	441051	21967	1454	31005	2	380	3308	0	27	27
8:30:56 PM	12/8/2023	441052	22200	1451	31006	2	380	3391	0	27	27
8:31:23 PM	12/8/2023	441053	21867	1454	31004	2	380	3371	0	27	27
8:31:23 PM	12/8/2023	441054	22094	1451	31006	2	380	3347	0	27	27
8:31:49 PM	12/8/2023	441055	21958	1454	31005	2	380	3443	0	27	27
8:31:49 PM	12/8/2023	441056	22292	1451	31006	2	380	3383	0	27	27
8:32:16 PM	12/8/2023	441057	21865	1453	31005	2	381	3193	0	27	27
8:32:16 PM	12/8/2023	441058	22264	1451	31006	2	380	3387	0	27	27
8:32:42 PM	12/8/2023	441059	21906	1454	31005	2	380	3463	0	27	27
8:32:42 PM	12/8/2023	441060	22158	1451	31006	2	380	3344	0	27	27
8:33:08 PM	12/8/2023	441061	21861	1454	31005	2	380	3358	0	27	27
8:33:09 PM	12/8/2023	441062	22216	1451	31006	2	380	3392	0	27	27
8:33:35 PM	12/8/2023	441063	21733	1454	31005	2	380	3443	0	27	27
8:33:35 PM	12/8/2023	441064	21954	1451	31006	2	380	3464	0	27	27
8:34:28 PM	12/8/2023	441033	21903	1454	31005	2	380	3106	0	53	53
8:34:28 PM	12/8/2023	441034	25042	1451	31006	2	380	3121	0	53	53
8:34:55 PM	12/8/2023	441035	21520	1454	31005	2	381	3173	0	53	53
8:34:55 PM	12/8/2023	441036	21642	1451	31006	2	380	3122	0	53	53
8:35:22 PM	12/8/2023	441037	21605	1454	31005	2	380	3467	0	53	53
8:35:22 PM	12/8/2023	441038	21550	1451	31006	3	381	2387	0	53	53
8:35:48 PM	12/8/2023	441039	22335	1454	31005	2	380	3202	0	53	53
8:35:48 PM	12/8/2023	441040	24138	1451	31006	2	381	2997	0	53	53
8:36:15 PM	12/8/2023	441041	22089	1454	31005	2	380	3104	0	53	53
8:36:15 PM	12/8/2023	441042	21717	1451	31006	2	380	3062	0	53	53
8:36:41 PM	12/8/2023	441043	21652	1454	31005	2	381	3263	0	53	53
8:36:42 PM	12/8/2023	441044	21646	1451	31006	2	380	3157	0	53	53
8:37:08 PM	12/8/2023	441045	22168	1454	31005	2	380	3148	0	53	53
8:37:08 PM	12/8/2023	441046	21590	1451	31006	2	380	3196	0	53	53
8:37:34 PM	12/8/2023	441047	22346	1454	31005	2	380	3265	0	53	53
8:37:34 PM	12/8/2023	441048	22391	1451	31006	2	380	3071	0	53	53
8:38:01 PM	12/8/2023	441049	21859	1454	31005	1	381	4656	0	53	53
8:38:01 PM	12/8/2023	441050	22040	1451	31006	2	380	2976	0	53	53
8:38:27 PM	12/8/2023	441051	22049	1454	31005	2	380	2983	0	53	53
8:38:27 PM	12/8/2023	441052	22276	1451	31006	2	380	3053	0	53	53
8:38:54 PM	12/8/2023	441053	21975	1454	31005	2	380	3082	0	53	53
8:38:54 PM	12/8/2023	441054	22185	1451	31006	2	380	3043	0	53	53
8:39:20 PM	12/8/2023	441055	22026	1454	31005	2	380	3154	0	53	53
8:39:20 PM	12/8/2023	441056	22332	1451	31006	2	380	3032	0	53	53
8:39:47 PM	12/8/2023	441057	21916	1454	31005	2	380	2920	0	53	53
8:39:47 PM	12/8/2023	441058	22298	1451	31006	2	380	3069	0	53	53
8:40:13 PM	12/8/2023	441059	21950	1454	31005	2	380	3149	0	53	53
8:40:13 PM	12/8/2023	441060	22190	1451	31006	2	380	2993	0	53	53
8:40:40 PM	12/8/2023	441061	21933	1454	31004	2	380	3061	0	53	53
8:40:40 PM	12/8/2023	441062	22285	1451	31006	2	380	3095	0	53	53
8:41:06 PM	12/8/2023	441063	21783	1454	31005	2	380	3062	0	53	53
8:41:06 PM	12/8/2023	441064	22034	1451	31006	2	380	3157	0	53	53
8:42:00 PM	12/8/2023	441033	22002	1454	31005	2	380	2828	0	80	80
8:42:00 PM	12/8/2023	441034	25111	1451	31007	2	380	2805	0	80	80
8:42:26 PM	12/8/2023	441035	21651	1454	31005	2	380	2863	0	80	80
8:42:26 PM	12/8/2023	441036	21768	1451	31006	2	381	2795	0	80	80
8:42:53 PM	12/8/2023	441037	21696	1454	31005	2	380	3163	0	80	80
8:42:53 PM	12/8/2023	441038	21639	1451	31006	3	380	2125	0	80	80
8:43:20 PM	12/8/2023	441039	22392	1454	31005	2	381	2902	0	80	80
8:43:20 PM	12/8/2023	441040	24227	1451	31006	2	380	2687	0	80	80
8:43:47 PM	12/8/2023	441041	22146	1454	31005	2	380	2815	0	80	80
8:43:47 PM	12/8/2023	441042	21809	1451	31006	2	381	2781	0	80	80
8:44:13 PM	12/8/2023	441043	21739	1454	31005	2	380	2972	0	80	80
8:44:13 PM	12/8/2023	441044	21728	1451	31006	2	380	2857	0	80	80
8:44:40 PM	12/8/2023	441045	22246	1454	31005	2	380	2865	0	80	80
8:44:40 PM	12/8/2023	441046	21660	1451	31006	2	381	2870	0	80	80
8:45:06 PM	12/8/2023	441047	22457	1454	31004	2	380	2939	0	80	80
8:45:06 PM	12/8/2023	441048	22487	1451	31006	2	380	2811	0	80	80
8:45:33 PM	12/8/2023	441049	22039	1454	31004	1	381	4256	0	80	80
8:45:33 PM	12/8/2023	441050	22168	1451	31005	2	381	2722	0	80	80
8:45:59 PM	12/8/2023	441051	22143	1454	31004	2	380	2704	0	80	80
8:46:00 PM	12/8/2023	441052	22422	1451	31005	2	381	2737	0	80	80
8:46:26 PM	12/8/2023	441053	22040	1454	31005	2	381	2764	0	80	80
8:46:26 PM	12/8/2023	441054	22261	1451	31006	2	380	2713	0	80	80
8:46:53 PM	12/8/2023	441055	22099	1454	31005	2	381	2775	0	80	80
8:46:53 PM	12/8/2023	441056	22426	1451	31006	2	381	2762	0	80	80
8:47:19 PM	12/8/2023	441057	21984	1454	31005	3	380	2620	0	80	80
8:47:20 PM	12/8/2023	441058	22345	1451	31005	2	380	2790	0	80	80
8:47:46 PM	12/8/2023	441059	22099	1454	31005	2	381	2863	0	80	80
8:47:46 PM	12/8/2023	441060	22337	1451	31006	2	381	2724	0	80	80
8:48:13 PM	12/8/2023	441061	22014	1454	31005	2	381	2732	0	80	80
8:48:13 PM	12/8/2023	441062	22355	1451	31006	2	381	2802	0	80	80
8:48:39 PM	12/8/2023	441063	21875	1454	31005	2	381	2783	0	80	80
8:48:39 PM	12/8/2023	441064	22131	1451	31006	2	381	2859	0	80	80
8:49:33 PM	12/8/2023	441033	22136	1454	31005	3	380	2603	0	107	107
8:49:33 PM	12/8/2023	441034	25233	1452	31006	2	381	2558	0	107	107
8:49:59 PM	12/8/2023	441035	21694	1454	31005	2	380	2641	0	107	107
8:49:59 PM	12/8/2023	441036	21833	1452	31006	2	380	2552	0	107	107
8:50:26 PM	12/8/2023	441037	21789	1454	31005	2	380	2899	0	107	107
8:50:26 PM	12/8/2023	441038	21750	1451	31006	3	380	1899	0	107	107
8:50:53 PM	12/8/2023	441039	22509	1454	31005	2	381	2655	0	107	107
8:50:53 PM	12/8/2023	441040	24299	1451	31006	3	380	2447	0	107	107
8:51:20 PM	12/8/2023	441041	22271	1454	31005	3	380	2552	0	107	107
8:51:20 PM	12/8/2023	441042	21922	1451	31005	2	380	2573	0	107	107
8:51:47 PM	12/8/2023	441043	21828	1454	31005	2	380	2729	0	107	107
8:51:47 PM	12/8/2023	441044	21808	1451	31006	2	380	2640	0	107	107
8:52:13 PM	12/8/2023	441045	22362	1454	31005	2	380	2641	0	107	107
8:52:13 PM	12/8/2023	441046	21770	1451	31006	2	381	2605	0	107	107
8:52:40 PM	12/8/2023	441047	22522	1454	31004	2	380	2683	0	107	107
8:52:40 PM	12/8/2023	441048	22561	1451	31006	2	381	2560	0	107	107
8:53:06 PM	12/8/2023	441049	22154	1454	31005	1	380	3971	0	107	107
8:53:07 PM	12/8/2023	441050	22185	1451	31005	2	380	2504	0	107	107
8:53:33 PM	12/8/2023	441051	22137	1454	31005	2	381	2460	0	107	107
8:53:33 PM	12/8/2023	441052	22402	1451	31006	2	380	2533	0	107	107
8:54:00 PM	12/8/2023	441053	22085	1454	31005	2	381	2525	0	107	107
8:54:00 PM	12/8/2023	441054	22303	1451	31006	2	381	2497	0	107	107
8:54:26 PM	12/8/2023	441055	22183	1454	31005	2	381	2567	0	107	107
8:54:26 PM	12/8/2023	441056	22498	1451	31006	2	381	2539	0	107	107
8:54:53 PM	12/8/2023	441057	22015	1454	31005	3	380	2425	0	107	107
8:54:53 PM	12/8/2023	441058	22390	1451	31006	2	381	2586	0	107	107
8:55:20 PM	12/8/2023	441059	22098	1454	31005	2	380	2636	0	107	107
8:55:20 PM	12/8/2023	441060	22352	1451	31006	2	380	2525	0	107	107
8:55:46 PM	12/8/2023	441061	22080	1454	31005	2	380	2508	0	107	107
8:55:47 PM	12/8/2023	441062	22453	1451	31006	2	380	2536	0	107	107
8:56:13 PM	12/8/2023	441063	21914	1454	31005	2	381	2562	0	107	107
8:56:13 PM	12/8/2023	441064	22160	1451	31006	2	380	2644	0	107	107
8:57:06 PM	12/8/2023	441033	22183	1454	31005	3	381	2399	0	133	133
8:57:06 PM	12/8/2023	441034	25251	1451	31006	2	380	2368	0	133	133
8:57:33 PM	12/8/2023	441035	21751	1454	31005	3	380	2422	0	133	133
8:57:33 PM	12/8/2023	441036	21879	1451	31006	3	380	2304	0	133	133
8:58:01 PM	12/8/2023	441037	21816	1454	31005	2	381	2675	0	133	133
8:58:01 PM	12/8/2023	441038	21776	1451	31006	3	380	1698	0	133	133
8:58:28 PM	12/8/2023	441039	22518	1454	31005	2	380	2459	0	133	133
8:58:28 PM	12/8/2023	441040	24319	1451	31006	3	381	2236	0	133	133
8:58:55 PM	12/8/2023	441041	22276	1454	31005	3	381	2377	0	133	133
8:58:55 PM	12/8/2023	441042	21913	1451	31006	2	380	2388	0	133	133
8:59:21 PM	12/8/2023	441043	21838	1454	31005	3	380	2524	0	133	133
8:59:22 PM	12/8/2023	441044	21798	1451	31006	2	380	2478	0	133	133
8:59:48 PM	12/8/2023	441045	22372	1454	31005	2	381	2454	0	133	133
8:59:48 PM	12/8/2023	441046	21787	1451	31006	2	380	2401	0	133	133
9:00:15 PM	12/8/2023	441047	22568	1454	31005	2	381	2452	0	133	133
9:00:15 PM	12/8/2023	441048	22614	1451	31006	2	380	2340	0	133	133
9:00:42 PM	12/8/2023	441049	22290	1454	31005	1	380	3711	0	133	133
9:00:42 PM	12/8/2023	441050	22235	1451	31006	2	380	2295	0	133	133
9:01:09 PM	12/8/2023	441051	22201	1454	31004	2	380	2252	0	133	133
9:01:09 PM	12/8/2023	441052	22462	1451	31006	2	380	2330	0	133	133
9:01:35 PM	12/8/2023	441053	22111	1454	31005	2	380	2315	0	133	133
9:01:36 PM	12/8/2023	441054	22314	1451	31006	2	380	2312	0	133	133
9:02:02 PM	12/8/2023	441055	22200	1454	31005	2	380	2377	0	133	133
9:02:02 PM	12/8/2023	441056	22494	1451	31006	2	380	2363	0	133	133
9:02:29 PM	12/8/2023	441057	22054	1454	31005	3	381	2231	0	133	133
9:02:29 PM	12/8/2023	441058	22452	1451	31006	2	380	2403	0	133	133
9:02:56 PM	12/8/2023	441059	22102	1454	31005	2	380	2447	0	133	133
9:02:56 PM	12/8/2023	441060	22369	1451	31006	2	380	2340	0	133	133
9:03:23 PM	12/8/2023	441061	22077	1454	31005	2	380	2306	0	133	133
9:03:23 PM	12/8/2023	441062	22441	1451	31006	2	380	2327	0	133	133
9:03:50 PM	12/8/2023	441063	21941	1454	31005	2	380	2367	0	133	133
9:03:50 PM	12/8/2023	441064	22187	1451	31006	2	381	2420	0	133	133
9:04:43 PM	12/8/2023	441033	22341	1454	31005	3	380	2218	0	160	160
9:04:43 PM	12/8/2023	441034	25278	1452	31006	2	380	2168	0	160	160
9:05:10 PM	12/8/2023	441035	21789	1454	31005	3	381	2216	0	160	160
9:05:10 PM	12/8/2023	441036	21906	1452	31007	3	380	2135	0	160	160
9:05:37 PM	12/8/2023	441037	21833	1454	31005	2	380	2495	0	160	160
9:05:38 PM	12/8/2023	441038	21796	1451	31006	3	380	1523	0	160	160
9:06:04 PM	12/8/2023	441039	22546	1454	31006	2	380	2267	0	160	160
9:06:05 PM	12/8/2023	441040	24344	1451	31006	3	380	2049	0	160	160
9:06:32 PM	12/8/2023	441041	22294	1454	31005	3	380	2194	0	160	160
9:06:32 PM	12/8/2023	441042	21915	1451	31006	3	380	2210	0	160	160
9:06:59 PM	12/8/2023	441043	21888	1454	31005	3	381	2331	0	160	160
9:06:59 PM	12/8/2023	441044	21870	1451	31006	3	380	2305	0	160	160
9:07:25 PM	12/8/2023	441045	22418	1454	31005	2	381	2282	0	160	160
9:07:26 PM	12/8/2023	441046	21830	1451	31006	2	380	2188	0	160	160
9:07:52 PM	12/8/2023	441047	22604	1454	31005	2	380	2270	0	160	160
9:07:52 PM	12/8/2023	441048	22656	1451	31006	2	380	2134	0	160	160
9:08:19 PM	12/8/2023	441049	22496	1454	31005	1	380	3494	0	160	160
9:08:19 PM	12/8/2023	441050	22275	1451	31006	3	380	2115	0	160	160
9:08:46 PM	12/8/2023	441051	22181	1454	31005	2	380	2079	0	160	160
9:08:46 PM	12/8/2023	441052	22426	1451	31006	3	380	2165	0	160	160
9:09:13 PM	12/8/2023	441053	22142	1454	31005	2	380	2129	0	160	160
9:09:13 PM	12/8/2023	441054	22346	1451	31006	2	380	2119	0	160	160
9:09:39 PM	12/8/2023	441055	22227	1454	31005	2	380	2193	0	160	160
9:09:39 PM	12/8/2023	441056	22536	1451	31006	2	380	2181	0	160	160
9:10:07 PM	12/8/2023	441057	22120	1454	31004	3	380	2052	0	160	160
9:10:07 PM	12/8/2023	441058	22512	1451	31006	2	380	2218	0	160	160
9:10:33 PM	12/8/2023	441059	22184	1454	31005	2	380	2255	0	160	160
9:10:34 PM	12/8/2023	441060	22442	1451	31006	3	380	2147	0	160	160
9:11:00 PM	12/8/2023	441061	22113	1454	31004	3	380	2120	0	160	160
9:11:00 PM	12/8/2023	441062	22482	1451	31006	3	380	2140	0	160	160
9:11:27 PM	12/8/2023	441063	21988	1454	31005	2	380	2189	0	160	160
9:11:27 PM	12/8/2023	441064	22230	1451	31006	2	380	2232	0	160	160
