# -----
# file_format_version=1.1
# number_of_flowcells=10
# MFC=MFC 2
# fluid_number=4
# fluid=100% CO2
# flow_range=2.0-100.0 l/h
# nb_repeats=2
# is_dual_curve=True
# flows_curve_low=[0.0, 3.5, 10.0]
# flows_curve_high=[10.0, 13.33, 16.67, 20.0]
# -----
timestamp,barcode1,barcode2,curve,flow_setpoint,flow,slope1,slope2,t_ambient1,t_ambient2,i_low_in,i_low_out,i_high_in,i_high_out,t_wait1,t_wait2,t_sample1,t_sample2
2024-11-21_18:00:57,111111,111112,high,20.0,19.960542678833008,3353,3217,22901,22818,1453,1454,31038,31038,2,2,380,380
2024-11-21_18:00:57,111113,111114,high,20.0,19.960542678833008,3373,3177,22956,22637,1448,1449,31027,31033,2,2,379,379
2024-11-21_18:01:24,111115,111116,high,20.0,19.999208450317383,3242,3217,22919,22787,1451,1452,31035,31034,2,2,380,380
2024-11-21_18:01:24,111117,111118,high,20.0,19.999208450317383,3440,3414,22960,22633,1447,1448,31025,31030,2,2,380,380
2024-11-21_18:01:50,111119,222210,high,20.0,19.996063232421875,3292,3290,23000,22520,1451,1452,31033,31033,2,2,380,380
2024-11-21_18:02:17,111111,111112,high,20.0,19.99623680114746,3347,3206,22980,22889,1451,1452,31033,31032,2,2,380,381
2024-11-21_18:02:17,111113,111114,high,20.0,19.99623680114746,3368,3164,23016,22703,1447,1448,31027,31031,2,2,379,380
2024-11-21_18:02:44,111115,111116,high,20.0,19.998937606811523,3229,3213,22996,22856,1450,1452,31033,31032,2,2,381,380
2024-11-21_18:02:44,111117,111118,high,20.0,19.998937606811523,3440,3408,23031,22725,1446,1447,31024,31027,2,2,380,380
2024-11-21_18:03:10,111119,222210,high,20.0,19.99787139892578,3285,3281,23083,22611,1450,1452,31033,31032,2,2,380,380
2024-11-21_18:03:43,111111,111112,high,16.67,16.666147232055664,3434,3282,22997,22913,1451,1452,31034,31033,2,2,380,381
2024-11-21_18:03:43,111113,111114,high,16.67,16.666147232055664,3455,3252,23018,22705,1447,1448,31026,31031,2,2,379,379
2024-11-21_18:04:09,111115,111116,high,16.67,16.66817283630371,3320,3304,23015,22876,1451,1452,31033,31032,2,2,380,380
2024-11-21_18:04:09,111117,111118,high,16.67,16.66817283630371,3522,3487,23082,22772,1446,1447,31024,31028,2,2,380,380
2024-11-21_18:04:36,111119,222210,high,16.67,16.665620803833008,3371,3382,23078,22610,1451,1452,31033,31032,2,2,380,380
2024-11-21_18:05:02,111111,111112,high,16.67,16.66706085205078,3431,3293,23030,22914,1450,1452,31033,31032,2,2,380,380
2024-11-21_18:05:02,111113,111114,high,16.67,16.66706085205078,3455,3250,23036,22737,1447,1448,31026,31031,2,2,379,379
2024-11-21_18:05:29,111115,111116,high,16.67,16.666500091552734,3316,3296,23065,22927,1450,1452,31033,31032,2,2,380,380
2024-11-21_18:05:29,111117,111118,high,16.67,16.666500091552734,3529,3492,23047,22745,1446,1447,31024,31028,2,2,380,380
2024-11-21_18:05:56,111119,222210,high,16.67,16.668508529663086,3374,3388,23089,22602,1450,1452,31033,31032,2,2,380,380
2024-11-21_18:06:28,111111,111112,high,13.33,13.332803726196289,3526,3368,23021,22963,1451,1452,31034,31033,2,2,380,381
2024-11-21_18:06:28,111113,111114,high,13.33,13.332803726196289,3539,3345,23041,22736,1447,1448,31028,31032,2,2,380,379
2024-11-21_18:06:55,111115,111116,high,13.33,13.328598022460938,3413,3409,23044,22911,1451,1452,31033,31033,2,2,380,380
2024-11-21_18:06:55,111117,111118,high,13.33,13.328598022460938,3625,3585,23063,22758,1446,1447,31025,31029,2,2,380,380
2024-11-21_18:07:21,111119,222210,high,13.33,13.331981658935547,3461,3493,23138,22641,1450,1452,31033,31032,2,2,380,380
2024-11-21_18:07:48,111111,111112,high,13.33,13.32753849029541,3525,3383,23059,22943,1450,1452,31033,31032,2,2,380,380
2024-11-21_18:07:48,111113,111114,high,13.33,13.32753849029541,3532,3339,23106,22767,1447,1448,31026,31031,2,2,380,379
2024-11-21_18:08:14,111115,111116,high,13.33,13.328136444091797,3414,3412,23053,22915,1451,1452,31033,31032,2,2,380,380
2024-11-21_18:08:14,111117,111118,high,13.33,13.328136444091797,3622,3587,23091,22774,1446,1447,31025,31029,2,2,380,380
2024-11-21_18:08:41,111119,222210,high,13.33,13.328300476074219,3459,3486,23188,22709,1450,1452,31033,31033,2,2,380,380
2024-11-21_18:09:14,111111,111112,low,10.0,10.00151538848877,3628,3483,23079,23009,1451,1452,31035,31034,2,2,380,380
2024-11-21_18:09:14,111111,111112,high,10.0,10.00151538848877,3628,3483,23079,23009,1451,1452,31035,31034,2,2,380,380
2024-11-21_18:09:14,111113,111114,low,10.0,10.00151538848877,3642,3453,23094,22778,1447,1448,31027,31032,2,2,380,379
2024-11-21_18:09:14,111113,111114,high,10.0,10.00151538848877,3642,3453,23094,22778,1447,1448,31027,31032,2,2,380,379
2024-11-21_18:09:40,111115,111116,low,10.0,9.99995231628418,3513,3539,23108,22962,1451,1452,31034,31033,2,2,380,380
2024-11-21_18:09:40,111115,111116,high,10.0,9.99995231628418,3513,3539,23108,22962,1451,1452,31034,31033,2,2,380,380
2024-11-21_18:09:40,111117,111118,low,10.0,9.99995231628418,3738,3691,23109,22837,1446,1447,31025,31029,2,2,380,380
2024-11-21_18:09:40,111117,111118,high,10.0,9.99995231628418,3738,3691,23109,22837,1446,1447,31025,31029,2,2,380,380
2024-11-21_18:10:07,111119,222210,low,10.0,9.997387886047363,3571,3610,23144,22701,1451,1452,31033,31033,2,2,380,380
2024-11-21_18:10:07,111119,222210,high,10.0,9.997387886047363,3571,3610,23144,22701,1451,1452,31033,31033,2,2,380,380
2024-11-21_18:10:33,111111,111112,low,10.0,9.99921703338623,3631,3486,23080,22984,1451,1452,31033,31033,2,2,380,380
2024-11-21_18:10:33,111111,111112,high,10.0,9.99921703338623,3631,3486,23080,22984,1451,1452,31033,31033,2,2,380,380
2024-11-21_18:10:33,111113,111114,low,10.0,9.99921703338623,3636,3450,23130,22802,1447,1448,31027,31031,2,2,380,379
2024-11-21_18:10:33,111113,111114,high,10.0,9.99921703338623,3636,3450,23130,22802,1447,1448,31027,31031,2,2,380,379
2024-11-21_18:11:00,111115,111116,low,10.0,9.997087478637695,3509,3537,23150,22983,1450,1452,31033,31032,2,2,380,380
2024-11-21_18:11:00,111115,111116,high,10.0,9.997087478637695,3509,3537,23150,22983,1450,1452,31033,31032,2,2,380,380
2024-11-21_18:11:00,111117,111118,low,10.0,9.997087478637695,3735,3690,23137,22836,1446,1447,31024,31029,2,2,380,380
2024-11-21_18:11:00,111117,111118,high,10.0,9.997087478637695,3735,3690,23137,22836,1446,1447,31024,31029,2,2,380,380
2024-11-21_18:11:26,111119,222210,low,10.0,10.000693321228027,3568,3609,23183,22717,1450,1452,31033,31032,2,2,380,380
2024-11-21_18:11:26,111119,222210,high,10.0,10.000693321228027,3568,3609,23183,22717,1450,1452,31033,31032,2,2,380,380
2024-11-21_18:11:59,111111,111112,low,3.5,3.5091676712036133,3952,3807,23106,23036,1451,1452,31035,31034,2,2,380,380
2024-11-21_18:11:59,111113,111114,low,3.5,3.5091676712036133,3985,3773,23134,22812,1447,1448,31027,31031,2,2,379,379
2024-11-21_18:12:26,111115,111116,low,3.5,3.4972524642944336,3848,3864,23099,22970,1451,1452,31034,31033,2,2,380,380
2024-11-21_18:12:26,111117,111118,low,3.5,3.4972524642944336,4092,4044,23165,22834,1446,1447,31025,31029,2,2,379,379
2024-11-21_18:12:52,111119,222210,low,3.5,3.498368501663208,3894,3868,23229,22739,1451,1452,31034,31033,2,2,380,380
2024-11-21_18:13:19,111111,111112,low,3.5,3.499967575073242,3952,3809,23144,23039,1451,1452,31033,31033,2,2,380,380
2024-11-21_18:13:19,111113,111114,low,3.5,3.499967575073242,3979,3770,23166,22867,1447,1448,31027,31031,2,2,379,379
2024-11-21_18:13:45,111115,111116,low,3.5,3.4989471435546875,3845,3859,23137,23000,1451,1452,31034,31033,2,2,380,380
2024-11-21_18:13:45,111117,111118,low,3.5,3.4989471435546875,4095,4038,23159,22879,1446,1447,31025,31029,2,2,379,379
2024-11-21_18:14:12,111119,222210,low,3.5,3.498234748840332,3892,3862,23248,22784,1451,1452,31034,31033,2,2,380,380
2024-11-21_18:14:39,111111,111112,low,0.0,0.0,4216,4084,23155,23062,1451,1452,31034,31033,2,2,381,380
2024-11-21_18:14:39,111113,111114,low,0.0,0.0,4288,4004,23160,22875,1447,1448,31026,31031,2,2,379,379
2024-11-21_18:15:05,111115,111116,low,0.0,0.0,4129,4047,23211,23048,1451,1452,31034,31033,2,2,381,381
2024-11-21_18:15:05,111117,111118,low,0.0,0.0,4358,4330,23211,22920,1446,1447,31025,31030,2,2,379,379
2024-11-21_18:15:32,111119,222210,low,0.0,0.0,4178,4016,23258,22767,1451,1452,31033,31033,2,2,381,381
2024-11-21_18:15:58,111111,111112,low,0.0,0.0,4215,4082,23181,23090,1451,1452,31034,31033,2,2,381,380
2024-11-21_18:15:58,111113,111114,low,0.0,0.0,4286,4003,23183,22901,1447,1448,31027,31032,2,2,379,379
2024-11-21_18:16:25,111115,111116,low,0.0,0.0,4131,4048,23220,23069,1451,1452,31034,31033,2,2,381,381
2024-11-21_18:16:25,111117,111118,low,0.0,0.0,4355,4332,23232,22923,1446,1447,31024,31029,2,2,379,379
2024-11-21_18:16:51,111119,222210,low,0.0,0.0,4180,4017,23287,22785,1451,1452,31033,31033,2,2,381,381
