"ID","Pos 1","Pos 2","Pos 3","Pos 4","Pos 5","Pos 6","Pos 7","Pos 8","Pos 9","Pos 10","Pos 11","Pos 12","Pos 13","Pos 14","Pos 15","Pos 16","Pos 17","Pos 18"
1,383020,383015,383001,383011,777,383003,383005,0,0,0,0,0,0,0,0,0,0,0
2,383028,383004,383012,383016,383014,383013,383010,0,0,0,0,0,0,0,0,0,0,0
3,373001,373022,373002,373018,373016,373019,373020,0,0,0,0,0,0,0,0,0,0,0
4,373006,373005,373021,373003,373004,373017,373012,0,0,0,0,0,0,0,0,0,0,0
5,308013,308014,308015,308016,308017,308018,308019,0,0,0,0,0,0,0,0,0,0,0
6,308007,308006,308005,308004,308003,308002,308001,0,0,0,0,0,0,0,0,0,0,0
