"ID","Pos 1","Pos 2","Pos 3","Pos 4","Pos 5","Pos 6","Pos 7","Pos 8","Pos 9","Pos 10","Pos 11","Pos 12","Pos 13","Pos 14","Pos 15","Pos 16","Pos 17","Pos 18"
1,104910,104915,104916,104908,104912,104917,104918,104920,104919,104922,104924,104923,113102,0,0,0,0,0
2,104943,104941,104939,104938,104937,104951,104935,104949,104930,104950,104955,104934,113053,0,0,0,0,0
3,104904,104903,104902,104901,104952,104948,104946,104945,104944,104942,104953,104931,0,0,0,0,0,0
4,104958,104957,104956,104960,104947,104961,104933,104932,104906,104905,104921,104954,0,0,0,0,0,0
