"ID","Pos 1","Pos 2","Pos 3","Pos 4","Pos 5","Pos 6","Pos 7","Pos 8","Pos 9","Pos 10","Pos 11","Pos 12","Pos 13","Pos 14","Pos 15","Pos 16","Pos 17","Pos 18"
1,115064,115063,115062,115061,115060,115059,115058,115057,115056,115055,115054,905083,115052,115051,0,0,0,0
2,115050,115049,115048,115047,115046,115045,115044,115043,115042,115041,115040,905096,115038,115037,0,0,0,0
3,105186,105128,105136,105149,105183,105134,0,0,0,0,0,0,0,0,0,0,0,0
4,105150,105141,105140,105710,105153,105208,0,0,0,0,0,0,0,0,0,0,0,0
