"ID","Pos 1","Pos 2","Pos 3","Pos 4","Pos 5","Pos 6","Pos 7","Pos 8","Pos 9","Pos 10","Pos 11","Pos 12","Pos 13","Pos 14","Pos 15","Pos 16","Pos 17","Pos 18"
1,601181,601182,601183,601184,601211,601212,601188,601189,0,0,0,0,0,0,0,0,0,0
2,601214,601185,601170,601180,601202,601203,601334,601205,0,0,0,0,0,0,0,0,0,0
3,601190,601191,601192,601193,601194,601196,601199,601198,0,0,0,0,0,0,0,0,0,0
4,601206,601207,601208,601209,601176,601177,601178,601179,0,0,0,0,0,0,0,0,0,0
