"ID","Pos 1","Pos 2","Pos 3","Pos 4","Pos 5","Pos 6","Pos 7","Pos 8","Pos 9","Pos 10","Pos 11","Pos 12","Pos 13","Pos 14","Pos 15","Pos 16","Pos 17","Pos 18"
1,203279,203280,203283,203330,203345,203347,203350,203462,203464,203465,203583,203592,203593,103260,103261,103273,0,0
2,103274,103277,103311,103325,103326,103337,103366,103369,103412,103426,103709,103830,103831,103849,103962,103974,0,0
