"ID","Pos 1","Pos 2","Pos 3","Pos 4","Pos 5","Pos 6","Pos 7","Pos 8","Pos 9","Pos 10","Pos 11","Pos 12","Pos 13","Pos 14","Pos 15","Pos 16","Pos 17","Pos 18"
1,601080,601078,601077,601076,601075,601074,601073,601072,0,0,0,0,0,0,0,0,0,0
2,601071,601120,601070,601117,601092,601069,601068,601061,0,0,0,0,0,0,0,0,0,0
3,601081,601085,601087,601088,601089,601094,601095,601096,0,0,0,0,0,0,0,0,0,0
4,601024,601025,601027,601028,601030,601031,601033,601035,0,0,0,0,0,0,0,0,0,0
