"ID","Pos 1","Pos 2","Pos 3","Pos 4","Pos 5","Pos 6","Pos 7","Pos 8","Pos 9","Pos 10","Pos 11","Pos 12","Pos 13","Pos 14","Pos 15","Pos 16","Pos 17","Pos 18"
1,501128,501129,501114,501170,501171,501172,501173,501175,501154,501176,501287,0,0,0,0,0,0,0
2,501133,501132,501131,501102,501142,501144,501145,501143,501130,501126,501288,0,0,0,0,0,0,0
3,501079,501085,501112,501141,501140,501139,501138,501137,501136,501135,501134,0,0,0,0,0,0,0
4,501110,501111,501125,501122,501121,501120,501118,501117,501116,501115,501113,0,0,0,0,0,0,0
