"ID","Pos 1","Pos 2","Pos 3","Pos 4","Pos 5","Pos 6","Pos 7","Pos 8","Pos 9","Pos 10","Pos 11","Pos 12","Pos 13","Pos 14","Pos 15","Pos 16","Pos 17","Pos 18"
1,601159,601162,601163,601164,601165,601166,601146,601147,0,0,0,0,0,0,0,0,0,0
2,601149,601150,601151,601442,601155,601156,601158,601111,0,0,0,0,0,0,0,0,0,0
3,601157,601148,601144,601142,601136,601143,601140,601139,0,0,0,0,0,0,0,0,0,0
4,601186,601167,601168,601169,601171,601173,601174,601175,0,0,0,0,0,0,0,0,0,0
