"ID","Pos 1","Pos 2","Pos 3","Pos 4","Pos 5","Pos 6","Pos 7","Pos 8","Pos 9","Pos 10","Pos 11","Pos 12","Pos 13","Pos 14","Pos 15","Pos 16","Pos 17","Pos 18"
1,501184,501188,501189,501207,501208,501210,501212,501213,501214,501216,501247,0,0,0,0,0,0,0
2,501197,501198,501199,501200,501201,501203,501204,501205,501206,501174,501183,0,0,0,0,0,0,0
3,501044,501045,501027,501047,501038,501191,501192,501193,501194,501195,501196,0,0,0,0,0,0,0
4,501156,501157,501190,501187,501186,501185,501182,501016,501028,501026,501025,0,0,0,0,0,0,0
