"ID","Pos 1","Pos 2","Pos 3","Pos 4","Pos 5","Pos 6","Pos 7","Pos 8","Pos 9","Pos 10","Pos 11","Pos 12","Pos 13","Pos 14","Pos 15","Pos 16","Pos 17","Pos 18"
1,115036,115035,115034,115033,115032,115031,115030,115029,115028,115027,115026,115025,115024,115023,0,0,0,0
2,115022,115021,115020,115019,115018,115017,115016,115015,115014,115013,115012,115011,115010,115009,0,0,0,0
3,105013,105068,105019,105003,105095,105072,0,0,0,0,0,0,0,0,0,0,0,0
4,105157,105192,105193,105176,105175,105164,0,0,0,0,0,0,0,0,0,0,0,0
