"ID","Pos 1","Pos 2","Pos 3","Pos 4","Pos 5","Pos 6","Pos 7","Pos 8","Pos 9","Pos 10","Pos 11","Pos 12","Pos 13","Pos 14","Pos 15","Pos 16","Pos 17","Pos 18"
1,203662,203682,203684,203686,203693,203660,103549,203690,203688,103553,103558,103559,113087,0,0,0,0,0
2,203663,203683,203685,203687,203692,203661,103534,203691,203689,103537,103539,103540,113113,0,0,0,0,0
3,103579,103840,103843,103842,203670,113160,203668,103855,203666,103921,103860,113182,113139,0,0,0,0,0
4,103924,103926,103928,103929,203671,113175,203669,103931,203667,103918,103919,113163,113109,0,0,0,0,0
5,103576,103939,103942,103938,103940,103944,103925,103933,103935,103923,103811,103920,113090,0,0,0,0,0
6,103560,103561,103562,103564,103566,103568,103969,103571,103572,103573,103574,103575,113110,0,0,0,0,0
