"ID","Node ID","Rack","Position","Pos 4","Pos 5","Pos 6","Pos 7","Pos 8","Pos 9","Pos 10","Pos 11","Pos 12","Pos 13","Pos 14","Pos 15","Pos 16","Pos 17","Pos 18"
1,5,62,1,0,0,0,0,0,0,0,0,0,0,0,0,0,0,0
2,6,62,2,0,0,0,0,0,0,0,0,0,0,0,0,0,0,0
3,7,62,3,0,0,0,0,0,0,0,0,0,0,0,0,0,0,0
4,8,62,4,0,0,0,0,0,0,0,0,0,0,0,0,0,0,0
