"ID","Pos 1","Pos 2","Pos 3","Pos 4","Pos 5","Pos 6","Pos 7","Pos 8","Pos 9","Pos 10","Pos 11","Pos 12","Pos 13","Pos 14","Pos 15","Pos 16","Pos 17","Pos 18"
1,103742,103717,103745,103728,103746,103747,113140,103740,103749,113180,103795,103796,103472,0,0,0,0,0
2,103707,103710,103711,103733,103734,103735,113098,103737,103738,113172,103743,103739,103475,0,0,0,0,0
3,103752,103155,113107,777,777,103517,103518,103158,103520,103159,103522,103523,103467,0,0,0,0,0
4,103161,103783,113101,203714,103162,103786,103788,777,103753,103759,103164,103744,103468,0,0,0,0,0
5,103766,103767,103769,103790,103792,103772,103774,103775,103777,103779,103780,103781,103469,0,0,0,0,0
6,103797,103798,103750,103751,103754,103755,103756,103757,103758,103761,103764,103765,103471,0,0,0,0,0
