"ID","Pos 1","Pos 2","Pos 3","Pos 4","Pos 5","Pos 6","Pos 7","Pos 8","Pos 9","Pos 10","Pos 11","Pos 12","Pos 13","Pos 14","Pos 15","Pos 16","Pos 17","Pos 18"
1,103133,103098,103097,113136,777,103563,103093,103091,103555,103482,113105,103490,203678,0,0,0,0,0
2,103565,103065,103070,113153,103570,103551,103076,103077,103703,103513,113132,103525,203679,0,0,0,0,0
3,777,203449,103061,103060,103479,103503,103057,103056,103055,113239,103049,203721,113123,0,0,0,0,0
4,203681,103556,103036,103045,103481,103557,103040,103039,103038,113279,103138,103137,113127,0,0,0,0,0
5,103012,103011,113116,203672,113063,103006,103134,103144,103002,777,103146,113146,203674,0,0,0,0,0
6,103025,103024,113174,203673,103019,103018,103129,103145,103916,103031,103147,113164,203675,0,0,0,0,0
7,113282,103030,103130,113280,103142,113287,103136,103139,113268,103121,103126,103127,113145,0,0,0,0,0
8,103022,103103,103530,113285,103107,113288,103763,103547,113281,103535,103128,103132,113156,0,0,0,0,0
