"ID","Pos 1","Pos 2","Pos 3","Pos 4","Pos 5","Pos 6","Pos 7","Pos 8","Pos 9","Pos 10","Pos 11","Pos 12","Pos 13","Pos 14","Pos 15","Pos 16","Pos 17","Pos 18"
1,109368,109351,109353,109314,109315,109316,109317,109318,109326,109322,109320,109329,109370,109324,109327,109348,109328,109333
2,109357,109342,109331,109358,109337,109321,109319,109334,109325,109323,109330,109340,109355,109360,109354,109346,109359,109335
