"ID","Pos 1","Pos 2","Pos 3","Pos 4","Pos 5","Pos 6","Pos 7","Pos 8","Pos 9","Pos 10","Pos 11","Pos 12","Pos 13","Pos 14","Pos 15","Pos 16","Pos 17","Pos 18"
1,777,777,109145,777,109147,109148,109131,109130,0,0,0,0,0,0,0,0,0,0
2,109105,777,777,109108,777,777,109119,109140,109116,0,0,0,0,0,0,0,0,0
