  can0  724   [1]  05
  can0  726   [1]  05
  can0  721   [1]  05
  can0  72B   [1]  05
  can0  720   [1]  05
  can0  72A   [1]  05
  can0  727   [1]  05
  can0  728   [1]  05
  can0  725   [1]  05
  can0  723   [1]  05
  can0  722   [1]  05
  can0  72D   [1]  05
  can0  72C   [1]  05
  can0  724   [1]  05
  can0  726   [1]  05
  can0  721   [1]  05
  can0  72B   [1]  05
  can0  720   [1]  05
  can0  72A   [1]  05
  can0  727   [1]  05
  can0  728   [1]  05
  can0  725   [1]  05
  can0  723   [1]  05
  can0  722   [1]  05
  can0  72D   [1]  05
  can0  72C   [1]  05
  can0  724   [1]  05
  can0  726   [1]  05
  can0  721   [1]  05
  can0  72B   [1]  05
  can0  720   [1]  05
  can0  72A   [1]  05
  can0  727   [1]  05
  can0  728   [1]  05
  can0  725   [1]  05
  can0  723   [1]  05
  can0  601   [8]  40 00 40 04 00 00 00 00
  can0  722   [1]  05
  can0  72D   [1]  05
  can0  72C   [1]  05
  can0  724   [1]  05
  can0  726   [1]  05
  can0  721   [1]  05
  can0  72B   [1]  05
  can0  720   [1]  05
  can0  72A   [1]  05
  can0  727   [1]  05
  can0  728   [1]  05
  can0  725   [1]  05
  can0  723   [1]  05
  can0  722   [1]  05
  can0  72D   [1]  05
  can0  72C   [1]  05
  can0  724   [1]  05
  can0  726   [1]  05
  can0  721   [1]  05
  can0  72B   [1]  05
  can0  602   [8]  40 00 40 04 00 00 00 00
  can0  720   [1]  05
  can0  72A   [1]  05
  can0  727   [1]  05
  can0  728   [1]  05
  can0  725   [1]  05
  can0  723   [1]  05
  can0  722   [1]  05
  can0  72D   [1]  05
  can0  72C   [1]  05
  can0  724   [1]  05
  can0  726   [1]  05
  can0  721   [1]  05
  can0  72B   [1]  05
  can0  603   [8]  40 00 40 04 00 00 00 00
  can0  583   [8]  4F 00 40 04 11 00 00 00
  can0  720   [1]  05
  can0  72A   [1]  05
  can0  727   [1]  05
  can0  728   [1]  05
  can0  725   [1]  05
  can0  723   [1]  05
  can0  722   [1]  05
  can0  72D   [1]  05
  can0  72C   [1]  05
  can0  724   [1]  05
  can0  726   [1]  05
  can0  721   [1]  05
  can0  604   [8]  40 00 40 04 00 00 00 00
  can0  584   [8]  4F 00 40 04 11 00 00 00
  can0  72B   [1]  05
  can0  720   [1]  05
  can0  72A   [1]  05
  can0  727   [1]  05
  can0  728   [1]  05
  can0  725   [1]  05
  can0  723   [1]  05
  can0  722   [1]  05
  can0  72D   [1]  05
  can0  72C   [1]  05
  can0  724   [1]  05
  can0  726   [1]  05
  can0  605   [8]  40 00 40 04 00 00 00 00
  can0  585   [8]  4F 00 40 04 14 00 00 00
  can0  721   [1]  05
  can0  72B   [1]  05
  can0  720   [1]  05
  can0  72A   [1]  05
  can0  727   [1]  05
  can0  728   [1]  05
  can0  725   [1]  05
  can0  723   [1]  05
  can0  722   [1]  05
  can0  72D   [1]  05
  can0  72C   [1]  05
  can0  724   [1]  05
  can0  726   [1]  05
  can0  606   [8]  40 00 40 04 00 00 00 00
  can0  586   [8]  4F 00 40 04 11 00 00 00
  can0  721   [1]  05
  can0  72B   [1]  05
  can0  720   [1]  05
  can0  72A   [1]  05
  can0  727   [1]  05
  can0  728   [1]  05
  can0  725   [1]  05
  can0  723   [1]  05
  can0  722   [1]  05
  can0  72D   [1]  05
  can0  607   [8]  40 00 40 04 00 00 00 00
  can0  587   [8]  4F 00 40 04 11 00 00 00
  can0  72C   [1]  05
  can0  724   [1]  05
  can0  726   [1]  05
  can0  721   [1]  05
  can0  72B   [1]  05
  can0  720   [1]  05
  can0  72A   [1]  05
  can0  727   [1]  05
  can0  728   [1]  05
  can0  608   [8]  40 00 40 04 00 00 00 00
  can0  588   [8]  4F 00 40 04 11 00 00 00
  can0  725   [1]  05
  can0  723   [1]  05
  can0  722   [1]  05
  can0  72D   [1]  05
  can0  72C   [1]  05
  can0  724   [1]  05
  can0  726   [1]  05
  can0  721   [1]  05
  can0  72B   [1]  05
  can0  720   [1]  05
  can0  72A   [1]  05
  can0  609   [8]  40 00 40 04 00 00 00 00
  can0  589   [8]  4F 00 40 04 11 00 00 00
  can0  727   [1]  05
  can0  728   [1]  05
  can0  725   [1]  05
  can0  723   [1]  05
  can0  722   [1]  05
  can0  72D   [1]  05
  can0  72C   [1]  05
  can0  724   [1]  05
  can0  726   [1]  05
  can0  721   [1]  05
  can0  60A   [8]  40 00 40 04 00 00 00 00
  can0  58A   [8]  4F 00 40 04 11 00 00 00
  can0  72B   [1]  05
  can0  720   [1]  05
  can0  72A   [1]  05
  can0  727   [1]  05
  can0  728   [1]  05
  can0  725   [1]  05
  can0  723   [1]  05
  can0  722   [1]  05
  can0  72D   [1]  05
  can0  72C   [1]  05
  can0  724   [1]  05
  can0  726   [1]  05
  can0  721   [1]  05
  can0  72B   [1]  05
  can0  60B   [8]  40 00 40 04 00 00 00 00
  can0  58B   [8]  4F 00 40 04 11 00 00 00
  can0  720   [1]  05
  can0  72A   [1]  05
  can0  727   [1]  05
  can0  728   [1]  05
  can0  725   [1]  05
  can0  723   [1]  05
  can0  722   [1]  05
  can0  72D   [1]  05
  can0  72C   [1]  05
  can0  724   [1]  05
  can0  726   [1]  05
  can0  721   [1]  05
  can0  72B   [1]  05
  can0  720   [1]  05
  can0  60C   [8]  40 00 40 04 00 00 00 00
  can0  58C   [8]  4F 00 40 04 11 00 00 00
  can0  72A   [1]  05
  can0  727   [1]  05
  can0  728   [1]  05
  can0  725   [1]  05
  can0  723   [1]  05
  can0  722   [1]  05
  can0  72D   [1]  05
  can0  72C   [1]  05
  can0  724   [1]  05
  can0  726   [1]  05
  can0  721   [1]  05
  can0  72B   [1]  05
  can0  720   [1]  05
  can0  72A   [1]  05
  can0  727   [1]  05
  can0  728   [1]  05
  can0  090   [8]  30 81 10 00 00 00 00 00
  can0  725   [1]  05
  can0  091   [8]  30 81 90 00 00 00 00 00
  can0  723   [1]  05
  can0  097   [8]  30 81 90 00 00 00 00 00
  can0  09C   [8]  30 81 90 00 00 00 00 00
  can0  722   [1]  05
  can0  093   [8]  30 81 90 00 00 00 00 80
  can0  094   [8]  30 81 90 00 00 00 00 00
  can0  08D   [8]  30 81 90 00 00 00 00 00
  can0  099   [8]  30 81 90 00 00 00 00 80
  can0  72D   [1]  05
  can0  72C   [1]  05
  can0  098   [8]  30 81 90 00 00 00 00 80
  can0  09E   [8]  30 81 90 00 00 00 00 00
  can0  724   [1]  05
  can0  726   [1]  05
  can0  092   [8]  30 81 90 00 00 00 00 00
  can0  08E   [8]  30 81 90 00 00 00 00 00
  can0  09D   [8]  30 81 90 00 00 00 00 00
  can0  721   [1]  05
  can0  72B   [1]  05
  can0  720   [1]  05
  can0  72A   [1]  05
  can0  727   [1]  05
  can0  728   [1]  05
  can0  725   [1]  05
  can0  723   [1]  05
  can0  722   [1]  05
  can0  72D   [1]  05
  can0  72C   [1]  05
  can0  724   [1]  05
  can0  726   [1]  05
  can0  721   [1]  05
  can0  72B   [1]  05
  can0  720   [1]  05
  can0  60D   [8]  40 00 40 04 00 00 00 00
  can0  58D   [8]  4F 00 40 04 11 00 00 00
  can0  72A   [1]  05
  can0  727   [1]  05
  can0  728   [1]  05
  can0  725   [1]  05
  can0  723   [1]  05
  can0  722   [1]  05
  can0  72D   [1]  05
  can0  72C   [1]  05
  can0  724   [1]  05
  can0  726   [1]  05
  can0  721   [1]  05
  can0  72B   [1]  05
  can0  720   [1]  05
  can0  72A   [1]  05
  can0  727   [1]  05
  can0  728   [1]  05
  can0  60E   [8]  40 00 40 04 00 00 00 00
  can0  725   [1]  05
  can0  58E   [8]  4F 00 40 04 11 00 00 00
  can0  723   [1]  05
  can0  722   [1]  05
  can0  72D   [1]  05
  can0  72C   [1]  05
  can0  724   [1]  05
  can0  726   [1]  05
  can0  721   [1]  05
  can0  72B   [1]  05
  can0  720   [1]  05
  can0  72A   [1]  05
  can0  727   [1]  05
  can0  728   [1]  05
  can0  725   [1]  05
  can0  60F   [8]  40 00 40 04 00 00 00 00
  can0  58F   [8]  4F 00 40 04 14 00 00 00
  can0  723   [1]  05
  can0  722   [1]  05
  can0  72D   [1]  05
  can0  72C   [1]  05
  can0  724   [1]  05
  can0  726   [1]  05
  can0  721   [1]  05
  can0  72B   [1]  05
  can0  720   [1]  05
  can0  72A   [1]  05
  can0  727   [1]  05
  can0  728   [1]  05
  can0  725   [1]  05
  can0  723   [1]  05
  can0  722   [1]  05
  can0  610   [8]  40 00 40 04 00 00 00 00
  can0  590   [8]  4F 00 40 04 11 00 00 00
  can0  72D   [1]  05
  can0  72C   [1]  05
  can0  724   [1]  05
  can0  726   [1]  05
  can0  721   [1]  05
  can0  72B   [1]  05
  can0  720   [1]  05
  can0  72A   [1]  05
  can0  727   [1]  05
  can0  728   [1]  05
  can0  725   [1]  05
  can0  611   [8]  40 00 40 04 00 00 00 00
  can0  591   [8]  4F 00 40 04 11 00 00 00
  can0  723   [1]  05
  can0  722   [1]  05
  can0  72D   [1]  05
  can0  72C   [1]  05
  can0  724   [1]  05
  can0  726   [1]  05
  can0  721   [1]  05
  can0  72B   [1]  05
  can0  720   [1]  05
  can0  72A   [1]  05
  can0  612   [8]  40 00 40 04 00 00 00 00
  can0  592   [8]  4F 00 40 04 11 00 00 00
  can0  727   [1]  05
  can0  728   [1]  05
  can0  725   [1]  05
  can0  723   [1]  05
  can0  722   [1]  05
  can0  72D   [1]  05
  can0  72C   [1]  05
  can0  724   [1]  05
  can0  726   [1]  05
  can0  721   [1]  05
  can0  72B   [1]  05
  can0  613   [8]  40 00 40 04 00 00 00 00
  can0  593   [8]  4F 00 40 04 11 00 00 00
  can0  720   [1]  05
  can0  72A   [1]  05
  can0  727   [1]  05
  can0  728   [1]  05
  can0  725   [1]  05
  can0  723   [1]  05
  can0  722   [1]  05
  can0  72D   [1]  05
  can0  72C   [1]  05
  can0  724   [1]  05
  can0  726   [1]  05
  can0  614   [8]  40 00 40 04 00 00 00 00
  can0  594   [8]  4F 00 40 04 11 00 00 00
  can0  721   [1]  05
  can0  72B   [1]  05
  can0  720   [1]  05
  can0  72A   [1]  05
  can0  727   [1]  05
  can0  728   [1]  05
  can0  725   [1]  05
  can0  723   [1]  05
  can0  722   [1]  05
  can0  615   [8]  40 00 40 04 00 00 00 00
  can0  72D   [1]  05
  can0  72C   [1]  05
  can0  724   [1]  05
  can0  726   [1]  05
  can0  721   [1]  05
  can0  72B   [1]  05
  can0  720   [1]  05
  can0  72A   [1]  05
  can0  727   [1]  05
  can0  616   [8]  40 00 40 04 00 00 00 00
  can0  728   [1]  05
  can0  725   [1]  05
  can0  723   [1]  05
  can0  722   [1]  05
  can0  72D   [1]  05
  can0  72C   [1]  05
  can0  724   [1]  05
  can0  726   [1]  05
  can0  721   [1]  05
  can0  72B   [1]  05
  can0  720   [1]  05
  can0  617   [8]  40 00 40 04 00 00 00 00
  can0  597   [8]  4F 00 40 04 11 00 00 00
  can0  72A   [1]  05
  can0  727   [1]  05
  can0  728   [1]  05
  can0  725   [1]  05
  can0  723   [1]  05
  can0  722   [1]  05
  can0  72D   [1]  05
  can0  72C   [1]  05
  can0  724   [1]  05
  can0  726   [1]  05
  can0  721   [1]  05
  can0  618   [8]  40 00 40 04 00 00 00 00
  can0  598   [8]  4F 00 40 04 11 00 00 00
  can0  72B   [1]  05
  can0  720   [1]  05
  can0  72A   [1]  05
  can0  727   [1]  05
  can0  728   [1]  05
  can0  725   [1]  05
  can0  723   [1]  05
  can0  722   [1]  05
  can0  72D   [1]  05
  can0  72C   [1]  05
  can0  724   [1]  05
  can0  726   [1]  05
  can0  619   [8]  40 00 40 04 00 00 00 00
  can0  599   [8]  4F 00 40 04 11 00 00 00
  can0  721   [1]  05
  can0  72B   [1]  05
  can0  720   [1]  05
  can0  72A   [1]  05
  can0  727   [1]  05
  can0  728   [1]  05
  can0  725   [1]  05
  can0  723   [1]  05
  can0  61A   [8]  40 00 40 04 00 00 00 00
  can0  59A   [8]  4F 00 40 04 11 00 00 00
  can0  722   [1]  05
  can0  72D   [1]  05
  can0  72C   [1]  05
  can0  724   [1]  05
  can0  726   [1]  05
  can0  721   [1]  05
  can0  72B   [1]  05
  can0  720   [1]  05
  can0  72A   [1]  05
  can0  727   [1]  05
  can0  61B   [8]  40 00 40 04 00 00 00 00
  can0  59B   [8]  4F 00 40 04 11 00 00 00
  can0  728   [1]  05
  can0  725   [1]  05
  can0  723   [1]  05
  can0  722   [1]  05
  can0  72D   [1]  05
  can0  72C   [1]  05
  can0  724   [1]  05
  can0  726   [1]  05
  can0  083   [8]  30 81 90 00 00 00 00 80
  can0  721   [1]  05
  can0  72B   [1]  05
  can0  61C   [8]  40 00 40 04 00 00 00 00
  can0  59C   [8]  4F 00 40 04 11 00 00 00
  can0  720   [1]  05
  can0  72A   [1]  05
  can0  727   [1]  05
  can0  728   [1]  05
  can0  725   [1]  05
  can0  723   [1]  05
  can0  722   [1]  05
  can0  72D   [1]  05
  can0  72C   [1]  05
  can0  724   [1]  05
  can0  726   [1]  05
  can0  084   [8]  30 81 90 00 00 00 00 80
  can0  721   [1]  05
  can0  61D   [8]  40 00 40 04 00 00 00 00
  can0  59D   [8]  4F 00 40 04 11 00 00 00
  can0  72B   [1]  05
  can0  720   [1]  05
  can0  72A   [1]  05
  can0  727   [1]  05
  can0  728   [1]  05
  can0  725   [1]  05
  can0  723   [1]  05
  can0  722   [1]  05
  can0  72D   [1]  05
  can0  72C   [1]  05
  can0  724   [1]  05
  can0  726   [1]  05
  can0  61E   [8]  40 00 40 04 00 00 00 00
  can0  59E   [8]  4F 00 40 04 11 00 00 00
  can0  721   [1]  05
  can0  72B   [1]  05
  can0  720   [1]  05
  can0  72A   [1]  05
  can0  727   [1]  05
  can0  728   [1]  05
  can0  725   [1]  05
  can0  723   [1]  05
  can0  722   [1]  05
  can0  72D   [1]  05
  can0  72C   [1]  05
  can0  724   [1]  05
  can0  726   [1]  05
  can0  086   [8]  30 81 90 00 00 00 00 80
  can0  721   [1]  05
  can0  72B   [1]  05
  can0  720   [1]  05
  can0  72A   [1]  05
  can0  727   [1]  05
  can0  728   [1]  05
  can0  725   [1]  05
  can0  723   [1]  05
  can0  722   [1]  05
  can0  087   [8]  30 81 90 00 00 00 00 00
  can0  72D   [1]  05
  can0  72C   [1]  05
  can0  726   [1]  05
  can0  724   [1]  05
  can0  721   [1]  05
  can0  72B   [1]  05
  can0  720   [1]  05
  can0  72A   [1]  05
  can0  727   [1]  05
  can0  088   [8]  30 81 90 00 00 00 00 80
  can0  725   [1]  05
  can0  728   [1]  05
  can0  723   [1]  05
  can0  722   [1]  05
  can0  72D   [1]  05
  can0  72C   [1]  05
  can0  726   [1]  05
  can0  724   [1]  05
  can0  721   [1]  05
  can0  72B   [1]  05
  can0  720   [1]  05
  can0  089   [8]  30 81 90 00 00 00 00 80
  can0  72A   [1]  05
  can0  727   [1]  05
  can0  725   [1]  05
  can0  728   [1]  05
  can0  723   [1]  05
  can0  722   [1]  05
  can0  72D   [1]  05
  can0  72C   [1]  05
  can0  726   [1]  05
  can0  724   [1]  05
  can0  08A   [8]  30 81 90 00 00 00 00 80
